%!PS-Adobe-3.0 EPSF-3.0
%%Creator: (MATLAB, The Mathworks, Inc. Version 9.4.0.813654 \(R2018a\). Operating System: Windows 10)
%%Title: C:/Users/Han/Documents/imd_compensation/functions/array_ip3_comp.eps
%%CreationDate: 2019-03-02T18:59:35
%%Pages: (atend)
%%BoundingBox: 0 0 547 372
%%LanguageLevel: 3
%%EndComments
%%BeginProlog
%%BeginResource: procset (Apache XML Graphics Std ProcSet) 1.2 0
%%Version: 1.2 0
%%Copyright: (Copyright 2001-2003,2010 The Apache Software Foundation. License terms: http://www.apache.org/licenses/LICENSE-2.0)
/bd{bind def}bind def
/ld{load def}bd
/GR/grestore ld
/GS/gsave ld
/RM/rmoveto ld
/C/curveto ld
/t/show ld
/L/lineto ld
/ML/setmiterlimit ld
/CT/concat ld
/f/fill ld
/N/newpath ld
/S/stroke ld
/CC/setcmykcolor ld
/A/ashow ld
/cp/closepath ld
/RC/setrgbcolor ld
/LJ/setlinejoin ld
/GC/setgray ld
/LW/setlinewidth ld
/M/moveto ld
/re {4 2 roll M
1 index 0 rlineto
0 exch rlineto
neg 0 rlineto
cp } bd
/_ctm matrix def
/_tm matrix def
/BT { _ctm currentmatrix pop matrix _tm copy pop 0 0 moveto } bd
/ET { _ctm setmatrix } bd
/iTm { _ctm setmatrix _tm concat } bd
/Tm { _tm astore pop iTm 0 0 moveto } bd
/ux 0.0 def
/uy 0.0 def
/F {
  /Tp exch def
  /Tf exch def
  Tf findfont Tp scalefont setfont
  /cf Tf def  /cs Tp def
} bd
/ULS {currentpoint /uy exch def /ux exch def} bd
/ULE {
  /Tcx currentpoint pop def
  gsave
  newpath
  cf findfont cs scalefont dup
  /FontMatrix get 0 get /Ts exch def /FontInfo get dup
  /UnderlinePosition get Ts mul /To exch def
  /UnderlineThickness get Ts mul /Tt exch def
  ux uy To add moveto  Tcx uy To add lineto
  Tt setlinewidth stroke
  grestore
} bd
/OLE {
  /Tcx currentpoint pop def
  gsave
  newpath
  cf findfont cs scalefont dup
  /FontMatrix get 0 get /Ts exch def /FontInfo get dup
  /UnderlinePosition get Ts mul /To exch def
  /UnderlineThickness get Ts mul /Tt exch def
  ux uy To add cs add moveto Tcx uy To add cs add lineto
  Tt setlinewidth stroke
  grestore
} bd
/SOE {
  /Tcx currentpoint pop def
  gsave
  newpath
  cf findfont cs scalefont dup
  /FontMatrix get 0 get /Ts exch def /FontInfo get dup
  /UnderlinePosition get Ts mul /To exch def
  /UnderlineThickness get Ts mul /Tt exch def
  ux uy To add cs 10 mul 26 idiv add moveto Tcx uy To add cs 10 mul 26 idiv add lineto
  Tt setlinewidth stroke
  grestore
} bd
/QT {
/Y22 exch store
/X22 exch store
/Y21 exch store
/X21 exch store
currentpoint
/Y21 load 2 mul add 3 div exch
/X21 load 2 mul add 3 div exch
/X21 load 2 mul /X22 load add 3 div
/Y21 load 2 mul /Y22 load add 3 div
/X22 load /Y22 load curveto
} bd
/SSPD {
dup length /d exch dict def
{
/v exch def
/k exch def
currentpagedevice k known {
/cpdv currentpagedevice k get def
v cpdv ne {
/upd false def
/nullv v type /nulltype eq def
/nullcpdv cpdv type /nulltype eq def
nullv nullcpdv or
{
/upd true def
} {
/sametype v type cpdv type eq def
sametype {
v type /arraytype eq {
/vlen v length def
/cpdvlen cpdv length def
vlen cpdvlen eq {
0 1 vlen 1 sub {
/i exch def
/obj v i get def
/cpdobj cpdv i get def
obj cpdobj ne {
/upd true def
exit
} if
} for
} {
/upd true def
} ifelse
} {
v type /dicttype eq {
v {
/dv exch def
/dk exch def
/cpddv cpdv dk get def
dv cpddv ne {
/upd true def
exit
} if
} forall
} {
/upd true def
} ifelse
} ifelse
} if
} ifelse
upd true eq {
d k v put
} if
} if
} if
} forall
d length 0 gt {
d setpagedevice
} if
} bd
/RE { % /NewFontName [NewEncodingArray] /FontName RE -
  findfont dup length dict begin
  {
    1 index /FID ne
    {def} {pop pop} ifelse
  } forall
  /Encoding exch def
  /FontName 1 index def
  currentdict definefont pop
  end
} bind def
%%EndResource
%%BeginResource: procset (Apache XML Graphics EPS ProcSet) 1.0 0
%%Version: 1.0 0
%%Copyright: (Copyright 2002-2003 The Apache Software Foundation. License terms: http://www.apache.org/licenses/LICENSE-2.0)
/BeginEPSF { %def
/b4_Inc_state save def         % Save state for cleanup
/dict_count countdictstack def % Count objects on dict stack
/op_count count 1 sub def      % Count objects on operand stack
userdict begin                 % Push userdict on dict stack
/showpage { } def              % Redefine showpage, { } = null proc
0 setgray 0 setlinecap         % Prepare graphics state
1 setlinewidth 0 setlinejoin
10 setmiterlimit [ ] 0 setdash newpath
/languagelevel where           % If level not equal to 1 then
{pop languagelevel             % set strokeadjust and
1 ne                           % overprint to their defaults.
{false setstrokeadjust false setoverprint
} if
} if
} bd
/EndEPSF { %def
count op_count sub {pop} repeat            % Clean up stacks
countdictstack dict_count sub {end} repeat
b4_Inc_state restore
} bd
%%EndResource
%FOPBeginFontDict
%%IncludeResource: font Courier-Oblique
%%IncludeResource: font Courier-BoldOblique
%%IncludeResource: font Courier-Bold
%%IncludeResource: font ZapfDingbats
%%IncludeResource: font Symbol
%%IncludeResource: font Helvetica
%%IncludeResource: font Helvetica-Oblique
%%IncludeResource: font Helvetica-Bold
%%IncludeResource: font Helvetica-BoldOblique
%%IncludeResource: font Times-Roman
%%IncludeResource: font Times-Italic
%%IncludeResource: font Times-Bold
%%IncludeResource: font Times-BoldItalic
%%IncludeResource: font Courier
%FOPEndFontDict
%%BeginResource: encoding WinAnsiEncoding
/WinAnsiEncoding [
/.notdef /.notdef /.notdef /.notdef /.notdef
/.notdef /.notdef /.notdef /.notdef /.notdef
/.notdef /.notdef /.notdef /.notdef /.notdef
/.notdef /.notdef /.notdef /.notdef /.notdef
/.notdef /.notdef /.notdef /.notdef /.notdef
/.notdef /.notdef /.notdef /.notdef /.notdef
/.notdef /.notdef /space /exclam /quotedbl
/numbersign /dollar /percent /ampersand /quotesingle
/parenleft /parenright /asterisk /plus /comma
/hyphen /period /slash /zero /one
/two /three /four /five /six
/seven /eight /nine /colon /semicolon
/less /equal /greater /question /at
/A /B /C /D /E
/F /G /H /I /J
/K /L /M /N /O
/P /Q /R /S /T
/U /V /W /X /Y
/Z /bracketleft /backslash /bracketright /asciicircum
/underscore /quoteleft /a /b /c
/d /e /f /g /h
/i /j /k /l /m
/n /o /p /q /r
/s /t /u /v /w
/x /y /z /braceleft /bar
/braceright /asciitilde /bullet /Euro /bullet
/quotesinglbase /florin /quotedblbase /ellipsis /dagger
/daggerdbl /circumflex /perthousand /Scaron /guilsinglleft
/OE /bullet /Zcaron /bullet /bullet
/quoteleft /quoteright /quotedblleft /quotedblright /bullet
/endash /emdash /asciitilde /trademark /scaron
/guilsinglright /oe /bullet /zcaron /Ydieresis
/space /exclamdown /cent /sterling /currency
/yen /brokenbar /section /dieresis /copyright
/ordfeminine /guillemotleft /logicalnot /sfthyphen /registered
/macron /degree /plusminus /twosuperior /threesuperior
/acute /mu /paragraph /middot /cedilla
/onesuperior /ordmasculine /guillemotright /onequarter /onehalf
/threequarters /questiondown /Agrave /Aacute /Acircumflex
/Atilde /Adieresis /Aring /AE /Ccedilla
/Egrave /Eacute /Ecircumflex /Edieresis /Igrave
/Iacute /Icircumflex /Idieresis /Eth /Ntilde
/Ograve /Oacute /Ocircumflex /Otilde /Odieresis
/multiply /Oslash /Ugrave /Uacute /Ucircumflex
/Udieresis /Yacute /Thorn /germandbls /agrave
/aacute /acircumflex /atilde /adieresis /aring
/ae /ccedilla /egrave /eacute /ecircumflex
/edieresis /igrave /iacute /icircumflex /idieresis
/eth /ntilde /ograve /oacute /ocircumflex
/otilde /odieresis /divide /oslash /ugrave
/uacute /ucircumflex /udieresis /yacute /thorn
/ydieresis
] def
%%EndResource
%FOPBeginFontReencode
/Courier-Oblique findfont
dup length dict begin
  {1 index /FID ne {def} {pop pop} ifelse} forall
  /Encoding WinAnsiEncoding def
  currentdict
end
/Courier-Oblique exch definefont pop
/Courier-BoldOblique findfont
dup length dict begin
  {1 index /FID ne {def} {pop pop} ifelse} forall
  /Encoding WinAnsiEncoding def
  currentdict
end
/Courier-BoldOblique exch definefont pop
/Courier-Bold findfont
dup length dict begin
  {1 index /FID ne {def} {pop pop} ifelse} forall
  /Encoding WinAnsiEncoding def
  currentdict
end
/Courier-Bold exch definefont pop
/Helvetica findfont
dup length dict begin
  {1 index /FID ne {def} {pop pop} ifelse} forall
  /Encoding WinAnsiEncoding def
  currentdict
end
/Helvetica exch definefont pop
/Helvetica-Oblique findfont
dup length dict begin
  {1 index /FID ne {def} {pop pop} ifelse} forall
  /Encoding WinAnsiEncoding def
  currentdict
end
/Helvetica-Oblique exch definefont pop
/Helvetica-Bold findfont
dup length dict begin
  {1 index /FID ne {def} {pop pop} ifelse} forall
  /Encoding WinAnsiEncoding def
  currentdict
end
/Helvetica-Bold exch definefont pop
/Helvetica-BoldOblique findfont
dup length dict begin
  {1 index /FID ne {def} {pop pop} ifelse} forall
  /Encoding WinAnsiEncoding def
  currentdict
end
/Helvetica-BoldOblique exch definefont pop
/Times-Roman findfont
dup length dict begin
  {1 index /FID ne {def} {pop pop} ifelse} forall
  /Encoding WinAnsiEncoding def
  currentdict
end
/Times-Roman exch definefont pop
/Times-Italic findfont
dup length dict begin
  {1 index /FID ne {def} {pop pop} ifelse} forall
  /Encoding WinAnsiEncoding def
  currentdict
end
/Times-Italic exch definefont pop
/Times-Bold findfont
dup length dict begin
  {1 index /FID ne {def} {pop pop} ifelse} forall
  /Encoding WinAnsiEncoding def
  currentdict
end
/Times-Bold exch definefont pop
/Times-BoldItalic findfont
dup length dict begin
  {1 index /FID ne {def} {pop pop} ifelse} forall
  /Encoding WinAnsiEncoding def
  currentdict
end
/Times-BoldItalic exch definefont pop
/Courier findfont
dup length dict begin
  {1 index /FID ne {def} {pop pop} ifelse} forall
  /Encoding WinAnsiEncoding def
  currentdict
end
/Courier exch definefont pop
%FOPEndFontReencode
%%EndProlog
%%Page: 1 1
%%PageBoundingBox: 0 0 547 372
%%BeginPageSetup
[1 0 0 -1 0 372] CT
%%EndPageSetup
GS
[0.75 0 0 0.75 0 0] CT
1 GC
N
0 0 729 496 re
f
GR
GS
[0.75 0 0 0.75 0 0] CT
1 GC
N
0 0 729 496 re
f
GR
GS
[0.75 0 0 0.75 0 0] CT
1 GC
N
95 439 M
660 439 L
660 37 L
95 37 L
cp
f
GR
GS
[0.75 0 0 0.75 0 0] CT
0.873 GC
1 LJ
0.667 LW
N
95 439 M
95 37 L
S
GR
GS
[0.75 0 0 0.75 0 0] CT
0.873 GC
1 LJ
0.667 LW
N
189.167 439 M
189.167 37 L
S
GR
GS
[0.75 0 0 0.75 0 0] CT
0.873 GC
1 LJ
0.667 LW
N
283.333 439 M
283.333 37 L
S
GR
GS
[0.75 0 0 0.75 0 0] CT
0.873 GC
1 LJ
0.667 LW
N
377.5 439 M
377.5 37 L
S
GR
GS
[0.75 0 0 0.75 0 0] CT
0.873 GC
1 LJ
0.667 LW
N
471.667 439 M
471.667 37 L
S
GR
GS
[0.75 0 0 0.75 0 0] CT
0.873 GC
1 LJ
0.667 LW
N
565.833 439 M
565.833 37 L
S
GR
GS
[0.75 0 0 0.75 0 0] CT
0.873 GC
1 LJ
0.667 LW
N
660 439 M
660 37 L
S
GR
GS
[0.75 0 0 0.75 0 0] CT
0.873 GC
1 LJ
0.667 LW
N
660 439 M
95 439 L
S
GR
GS
[0.75 0 0 0.75 0 0] CT
0.873 GC
1 LJ
0.667 LW
N
660 372 M
95 372 L
S
GR
GS
[0.75 0 0 0.75 0 0] CT
0.873 GC
1 LJ
0.667 LW
N
660 305 M
95 305 L
S
GR
GS
[0.75 0 0 0.75 0 0] CT
0.873 GC
1 LJ
0.667 LW
N
660 238 M
95 238 L
S
GR
GS
[0.75 0 0 0.75 0 0] CT
0.873 GC
1 LJ
0.667 LW
N
660 171 M
95 171 L
S
GR
GS
[0.75 0 0 0.75 0 0] CT
0.873 GC
1 LJ
0.667 LW
N
660 104 M
95 104 L
S
GR
GS
[0.75 0 0 0.75 0 0] CT
0.873 GC
1 LJ
0.667 LW
N
660 37 M
95 37 L
S
GR
GS
[0.75 0 0 0.75 0 0] CT
0.149 GC
2 setlinecap
1 LJ
0.667 LW
N
95 439 M
660 439 L
S
GR
GS
[0.75 0 0 0.75 0 0] CT
0.149 GC
2 setlinecap
1 LJ
0.667 LW
N
95 37 M
660 37 L
S
GR
GS
[0.75 0 0 0.75 0 0] CT
0.149 GC
2 setlinecap
1 LJ
0.667 LW
N
95 439 M
95 433.35 L
S
GR
GS
[0.75 0 0 0.75 0 0] CT
0.149 GC
2 setlinecap
1 LJ
0.667 LW
N
189.167 439 M
189.167 433.35 L
S
GR
GS
[0.75 0 0 0.75 0 0] CT
0.149 GC
2 setlinecap
1 LJ
0.667 LW
N
283.333 439 M
283.333 433.35 L
S
GR
GS
[0.75 0 0 0.75 0 0] CT
0.149 GC
2 setlinecap
1 LJ
0.667 LW
N
377.5 439 M
377.5 433.35 L
S
GR
GS
[0.75 0 0 0.75 0 0] CT
0.149 GC
2 setlinecap
1 LJ
0.667 LW
N
471.667 439 M
471.667 433.35 L
S
GR
GS
[0.75 0 0 0.75 0 0] CT
0.149 GC
2 setlinecap
1 LJ
0.667 LW
N
565.833 439 M
565.833 433.35 L
S
GR
GS
[0.75 0 0 0.75 0 0] CT
0.149 GC
2 setlinecap
1 LJ
0.667 LW
N
660 439 M
660 433.35 L
S
GR
GS
[0.75 0 0 0.75 0 0] CT
0.149 GC
2 setlinecap
1 LJ
0.667 LW
N
95 37 M
95 42.65 L
S
GR
GS
[0.75 0 0 0.75 0 0] CT
0.149 GC
2 setlinecap
1 LJ
0.667 LW
N
189.167 37 M
189.167 42.65 L
S
GR
GS
[0.75 0 0 0.75 0 0] CT
0.149 GC
2 setlinecap
1 LJ
0.667 LW
N
283.333 37 M
283.333 42.65 L
S
GR
GS
[0.75 0 0 0.75 0 0] CT
0.149 GC
2 setlinecap
1 LJ
0.667 LW
N
377.5 37 M
377.5 42.65 L
S
GR
GS
[0.75 0 0 0.75 0 0] CT
0.149 GC
2 setlinecap
1 LJ
0.667 LW
N
471.667 37 M
471.667 42.65 L
S
GR
GS
[0.75 0 0 0.75 0 0] CT
0.149 GC
2 setlinecap
1 LJ
0.667 LW
N
565.833 37 M
565.833 42.65 L
S
GR
GS
[0.75 0 0 0.75 0 0] CT
0.149 GC
2 setlinecap
1 LJ
0.667 LW
N
660 37 M
660 42.65 L
S
GR
GS
[0.75 0 0 0.75 71.25 334.05] CT
0.149 GC
/Helvetica 18.667 F
GS
[1 0 0 1 0 0] CT
-5.5 19 moveto 
1 -1 scale
(3) t 
GR
GR
GS
[0.75 0 0 0.75 141.875 334.05] CT
0.149 GC
/Helvetica 18.667 F
GS
[1 0 0 1 0 0] CT
-13 19 moveto 
1 -1 scale
(3.5) t 
GR
GR
GS
[0.75 0 0 0.75 212.50001 334.05] CT
0.149 GC
/Helvetica 18.667 F
GS
[1 0 0 1 0 0] CT
-5.5 19 moveto 
1 -1 scale
(4) t 
GR
GR
GS
[0.75 0 0 0.75 283.125 334.05] CT
0.149 GC
/Helvetica 18.667 F
GS
[1 0 0 1 0 0] CT
-13 19 moveto 
1 -1 scale
(4.5) t 
GR
GR
GS
[0.75 0 0 0.75 353.74999 334.05] CT
0.149 GC
/Helvetica 18.667 F
GS
[1 0 0 1 0 0] CT
-5.5 19 moveto 
1 -1 scale
(5) t 
GR
GR
GS
[0.75 0 0 0.75 424.37498 334.05] CT
0.149 GC
/Helvetica 18.667 F
GS
[1 0 0 1 0 0] CT
-13 19 moveto 
1 -1 scale
(5.5) t 
GR
GR
GS
[0.75 0 0 0.75 495 334.05] CT
0.149 GC
/Helvetica 18.667 F
GS
[1 0 0 1 0 0] CT
-5.5 19 moveto 
1 -1 scale
(6) t 
GR
GR
GS
[0.75 0 0 0.75 283.12521 352.3] CT
0.149 GC
/Helvetica 20.533 F
GS
[1 0 0 1 0 0] CT
-42 21 moveto 
1 -1 scale
(ADC Bits) t 
GR
GR
GS
[0.75 0 0 0.75 0 0] CT
0.149 GC
2 setlinecap
1 LJ
0.667 LW
N
95 439 M
95 37 L
S
GR
GS
[0.75 0 0 0.75 0 0] CT
0.149 GC
2 setlinecap
1 LJ
0.667 LW
N
660 439 M
660 37 L
S
GR
GS
[0.75 0 0 0.75 0 0] CT
0.149 GC
2 setlinecap
1 LJ
0.667 LW
N
95 439 M
100.65 439 L
S
GR
GS
[0.75 0 0 0.75 0 0] CT
0.149 GC
2 setlinecap
1 LJ
0.667 LW
N
95 372 M
100.65 372 L
S
GR
GS
[0.75 0 0 0.75 0 0] CT
0.149 GC
2 setlinecap
1 LJ
0.667 LW
N
95 305 M
100.65 305 L
S
GR
GS
[0.75 0 0 0.75 0 0] CT
0.149 GC
2 setlinecap
1 LJ
0.667 LW
N
95 238 M
100.65 238 L
S
GR
GS
[0.75 0 0 0.75 0 0] CT
0.149 GC
2 setlinecap
1 LJ
0.667 LW
N
95 171 M
100.65 171 L
S
GR
GS
[0.75 0 0 0.75 0 0] CT
0.149 GC
2 setlinecap
1 LJ
0.667 LW
N
95 104 M
100.65 104 L
S
GR
GS
[0.75 0 0 0.75 0 0] CT
0.149 GC
2 setlinecap
1 LJ
0.667 LW
N
95 37 M
100.65 37 L
S
GR
GS
[0.75 0 0 0.75 0 0] CT
0.149 GC
2 setlinecap
1 LJ
0.667 LW
N
660 439 M
654.35 439 L
S
GR
GS
[0.75 0 0 0.75 0 0] CT
0.149 GC
2 setlinecap
1 LJ
0.667 LW
N
660 372 M
654.35 372 L
S
GR
GS
[0.75 0 0 0.75 0 0] CT
0.149 GC
2 setlinecap
1 LJ
0.667 LW
N
660 305 M
654.35 305 L
S
GR
GS
[0.75 0 0 0.75 0 0] CT
0.149 GC
2 setlinecap
1 LJ
0.667 LW
N
660 238 M
654.35 238 L
S
GR
GS
[0.75 0 0 0.75 0 0] CT
0.149 GC
2 setlinecap
1 LJ
0.667 LW
N
660 171 M
654.35 171 L
S
GR
GS
[0.75 0 0 0.75 0 0] CT
0.149 GC
2 setlinecap
1 LJ
0.667 LW
N
660 104 M
654.35 104 L
S
GR
GS
[0.75 0 0 0.75 0 0] CT
0.149 GC
2 setlinecap
1 LJ
0.667 LW
N
660 37 M
654.35 37 L
S
GR
GS
[0.75 0 0 0.75 66.45 329.25] CT
0.149 GC
/Helvetica 18.667 F
GS
[1 0 0 1 0 0] CT
-27 7 moveto 
1 -1 scale
(-30) t 
GR
GR
GS
[0.75 0 0 0.75 66.45 279] CT
0.149 GC
/Helvetica 18.667 F
GS
[1 0 0 1 0 0] CT
-27 7 moveto 
1 -1 scale
(-25) t 
GR
GR
GS
[0.75 0 0 0.75 66.45 228.75] CT
0.149 GC
/Helvetica 18.667 F
GS
[1 0 0 1 0 0] CT
-27 7 moveto 
1 -1 scale
(-20) t 
GR
GR
GS
[0.75 0 0 0.75 66.45 178.5] CT
0.149 GC
/Helvetica 18.667 F
GS
[1 0 0 1 0 0] CT
-27 7 moveto 
1 -1 scale
(-15) t 
GR
GR
GS
[0.75 0 0 0.75 66.45 128.25] CT
0.149 GC
/Helvetica 18.667 F
GS
[1 0 0 1 0 0] CT
-27 7 moveto 
1 -1 scale
(-10) t 
GR
GR
GS
[0.75 0 0 0.75 66.45 78] CT
0.149 GC
/Helvetica 18.667 F
GS
[1 0 0 1 0 0] CT
-17 7 moveto 
1 -1 scale
(-5) t 
GR
GR
GS
[0.75 0 0 0.75 66.45 27.75] CT
0.149 GC
/Helvetica 18.667 F
GS
[1 0 0 1 0 0] CT
-11 7 moveto 
1 -1 scale
(0) t 
GR
GR
GS
[0 -0.75 0.75 0 43.2 178.49985] CT
0.149 GC
/Helvetica 20.533 F
GS
[1 0 0 1 0 0] CT
-119.5 -5 moveto 
1 -1 scale
(Normalized Distortion [dB]) t 
GR
GR
GS
[0.75 0 0 0.75 0 0] CT
0.494 0.184 0.557 RC
[8 8] 0 setdash
2 LJ
2.667 LW
N
95 128.18 M
283.333 214.681 L
471.667 296.685 L
660 378.862 L
S
GR
GS
[0.75 0 0 0.75 71.25 96.1351] CT
0.494 0.184 0.557 RC
10.0 ML
2.667 LW
N
5.333 0 M
5.333 -2.946 2.946 -5.333 0 -5.333 C
-2.946 -5.333 -5.333 -2.946 -5.333 0 C
-5.333 2.946 -2.946 5.333 0 5.333 C
2.946 5.333 5.333 2.946 5.333 0 C
cp
S
GR
GS
[0.75 0 0 0.75 212.50001 161.01048] CT
0.494 0.184 0.557 RC
10.0 ML
2.667 LW
N
5.333 0 M
5.333 -2.946 2.946 -5.333 0 -5.333 C
-2.946 -5.333 -5.333 -2.946 -5.333 0 C
-5.333 2.946 -2.946 5.333 0 5.333 C
2.946 5.333 5.333 2.946 5.333 0 C
cp
S
GR
GS
[0.75 0 0 0.75 353.74999 222.5134] CT
0.494 0.184 0.557 RC
10.0 ML
2.667 LW
N
5.333 0 M
5.333 -2.946 2.946 -5.333 0 -5.333 C
-2.946 -5.333 -5.333 -2.946 -5.333 0 C
-5.333 2.946 -2.946 5.333 0 5.333 C
2.946 5.333 5.333 2.946 5.333 0 C
cp
S
GR
GS
[0.75 0 0 0.75 495 284.14641] CT
0.494 0.184 0.557 RC
10.0 ML
2.667 LW
N
5.333 0 M
5.333 -2.946 2.946 -5.333 0 -5.333 C
-2.946 -5.333 -5.333 -2.946 -5.333 0 C
-5.333 2.946 -2.946 5.333 0 5.333 C
2.946 5.333 5.333 2.946 5.333 0 C
cp
S
GR
GS
[0.75 0 0 0.75 0 0] CT
0.494 0.184 0.557 RC
[8 2 4 2] 0 setdash
2 LJ
2.667 LW
N
95 142.115 M
283.333 223.443 L
471.667 287.155 L
660 324.086 L
S
GR
GS
[0.75 0 0 0.75 71.25 106.58631] CT
0.494 0.184 0.557 RC
10.0 ML
2.667 LW
N
-4 -4 M
-4 4 L
4 4 L
4 -4 L
cp
S
GR
GS
[0.75 0 0 0.75 212.50001 167.58222] CT
0.494 0.184 0.557 RC
10.0 ML
2.667 LW
N
-4 -4 M
-4 4 L
4 4 L
4 -4 L
cp
S
GR
GS
[0.75 0 0 0.75 353.74999 215.36618] CT
0.494 0.184 0.557 RC
10.0 ML
2.667 LW
N
-4 -4 M
-4 4 L
4 4 L
4 -4 L
cp
S
GR
GS
[0.75 0 0 0.75 495 243.06473] CT
0.494 0.184 0.557 RC
10.0 ML
2.667 LW
N
-4 -4 M
-4 4 L
4 4 L
4 -4 L
cp
S
GR
GS
[0.75 0 0 0.75 0 0] CT
0.494 0.184 0.557 RC
1 LJ
2.667 LW
N
95 156.144 M
283.333 230.465 L
471.667 305.264 L
660 377.756 L
S
GR
GS
[0.75 0 0 0.75 71.25 117.10791] CT
0.494 0.184 0.557 RC
10.0 ML
2.667 LW
N
-3.771 -3.771 M
3.771 3.771 L
-3.771 3.771 M
3.771 -3.771 L
S
GR
GS
[0.75 0 0 0.75 212.50001 172.84862] CT
0.494 0.184 0.557 RC
10.0 ML
2.667 LW
N
-3.771 -3.771 M
3.771 3.771 L
-3.771 3.771 M
3.771 -3.771 L
S
GR
GS
[0.75 0 0 0.75 353.74999 228.94771] CT
0.494 0.184 0.557 RC
10.0 ML
2.667 LW
N
-3.771 -3.771 M
3.771 3.771 L
-3.771 3.771 M
3.771 -3.771 L
S
GR
GS
[0.75 0 0 0.75 495 283.31694] CT
0.494 0.184 0.557 RC
10.0 ML
2.667 LW
N
-3.771 -3.771 M
3.771 3.771 L
-3.771 3.771 M
3.771 -3.771 L
S
GR
GS
[0.75 0 0 0.75 0 0] CT
0.851 0.325 0.098 RC
[8 8] 0 setdash
2 LJ
2.667 LW
N
95 100.477 M
283.333 190.656 L
471.667 268.059 L
660 334.022 L
S
GR
GS
[0.75 0 0 0.75 71.25 75.35741] CT
0.851 0.325 0.098 RC
10.0 ML
2.667 LW
N
5.333 0 M
5.333 -2.946 2.946 -5.333 0 -5.333 C
-2.946 -5.333 -5.333 -2.946 -5.333 0 C
-5.333 2.946 -2.946 5.333 0 5.333 C
2.946 5.333 5.333 2.946 5.333 0 C
cp
S
GR
GS
[0.75 0 0 0.75 212.50001 142.99218] CT
0.851 0.325 0.098 RC
10.0 ML
2.667 LW
N
5.333 0 M
5.333 -2.946 2.946 -5.333 0 -5.333 C
-2.946 -5.333 -5.333 -2.946 -5.333 0 C
-5.333 2.946 -2.946 5.333 0 5.333 C
2.946 5.333 5.333 2.946 5.333 0 C
cp
S
GR
GS
[0.75 0 0 0.75 353.74999 201.04404] CT
0.851 0.325 0.098 RC
10.0 ML
2.667 LW
N
5.333 0 M
5.333 -2.946 2.946 -5.333 0 -5.333 C
-2.946 -5.333 -5.333 -2.946 -5.333 0 C
-5.333 2.946 -2.946 5.333 0 5.333 C
2.946 5.333 5.333 2.946 5.333 0 C
cp
S
GR
GS
[0.75 0 0 0.75 495 250.51671] CT
0.851 0.325 0.098 RC
10.0 ML
2.667 LW
N
5.333 0 M
5.333 -2.946 2.946 -5.333 0 -5.333 C
-2.946 -5.333 -5.333 -2.946 -5.333 0 C
-5.333 2.946 -2.946 5.333 0 5.333 C
2.946 5.333 5.333 2.946 5.333 0 C
cp
S
GR
GS
[0.75 0 0 0.75 0 0] CT
0.851 0.325 0.098 RC
[8 2 4 2] 0 setdash
2 LJ
2.667 LW
N
95 115.725 M
283.333 174.06 L
471.667 203.738 L
660 214.235 L
S
GR
GS
[0.75 0 0 0.75 71.25 86.79401] CT
0.851 0.325 0.098 RC
10.0 ML
2.667 LW
N
-4 -4 M
-4 4 L
4 4 L
4 -4 L
cp
S
GR
GS
[0.75 0 0 0.75 212.50001 130.54477] CT
0.851 0.325 0.098 RC
10.0 ML
2.667 LW
N
-4 -4 M
-4 4 L
4 4 L
4 -4 L
cp
S
GR
GS
[0.75 0 0 0.75 353.74999 152.80362] CT
0.851 0.325 0.098 RC
10.0 ML
2.667 LW
N
-4 -4 M
-4 4 L
4 4 L
4 -4 L
cp
S
GR
GS
[0.75 0 0 0.75 495 160.67656] CT
0.851 0.325 0.098 RC
10.0 ML
2.667 LW
N
-4 -4 M
-4 4 L
4 4 L
4 -4 L
cp
S
GR
GS
[0.75 0 0 0.75 0 0] CT
0.851 0.325 0.098 RC
1 LJ
2.667 LW
N
95 116.955 M
283.333 191.202 L
471.667 264.255 L
660 336.437 L
S
GR
GS
[0.75 0 0 0.75 71.25 87.71657] CT
0.851 0.325 0.098 RC
10.0 ML
2.667 LW
N
-3.771 -3.771 M
3.771 3.771 L
-3.771 3.771 M
3.771 -3.771 L
S
GR
GS
[0.75 0 0 0.75 212.50001 143.40146] CT
0.851 0.325 0.098 RC
10.0 ML
2.667 LW
N
-3.771 -3.771 M
3.771 3.771 L
-3.771 3.771 M
3.771 -3.771 L
S
GR
GS
[0.75 0 0 0.75 353.74999 198.19132] CT
0.851 0.325 0.098 RC
10.0 ML
2.667 LW
N
-3.771 -3.771 M
3.771 3.771 L
-3.771 3.771 M
3.771 -3.771 L
S
GR
GS
[0.75 0 0 0.75 495 252.32787] CT
0.851 0.325 0.098 RC
10.0 ML
2.667 LW
N
-3.771 -3.771 M
3.771 3.771 L
-3.771 3.771 M
3.771 -3.771 L
S
GR
GS
[0.75 0 0 0.75 0 0] CT
1 GC
N
402 425 M
402 293 L
109 293 L
109 425 L
cp
f
GR
GS
[0.75 0 0 0.75 117 229.08961] CT
/Helvetica 16.8 F
GS
[1 0 0 1 0 0] CT
0 6.5 moveto 
1 -1 scale
(NL, Prop. Comp. \(-57dBm Input\)) t 
GR
GR
GS
[0.75 0 0 0.75 0 0] CT
0.494 0.184 0.557 RC
[8 8] 0 setdash
2 LJ
2.667 LW
N
113 305.453 M
153 305.453 L
S
GR
GS
[0.75 0 0 0.75 99.75 229.08961] CT
0.494 0.184 0.557 RC
10.0 ML
2.667 LW
N
5.333 0 M
5.333 -2.946 2.946 -5.333 0 -5.333 C
-2.946 -5.333 -5.333 -2.946 -5.333 0 C
-5.333 2.946 -2.946 5.333 0 5.333 C
2.946 5.333 5.333 2.946 5.333 0 C
cp
S
GR
GS
[0.75 0 0 0.75 117 245.15378] CT
/Helvetica 16.8 F
GS
[1 0 0 1 0 0] CT
0 6.5 moveto 
1 -1 scale
(NL, No Comp. \(-57dBm Input\)) t 
GR
GR
GS
[0.75 0 0 0.75 0 0] CT
0.494 0.184 0.557 RC
[8 2 4 2] 0 setdash
2 LJ
2.667 LW
N
113 326.872 M
153 326.872 L
S
GR
GS
[0.75 0 0 0.75 99.75 245.15378] CT
0.494 0.184 0.557 RC
10.0 ML
2.667 LW
N
-4 -4 M
-4 4 L
4 4 L
4 -4 L
cp
S
GR
GS
[0.75 0 0 0.75 117 261.21792] CT
/Helvetica 16.8 F
GS
[1 0 0 1 0 0] CT
0 6.5 moveto 
1 -1 scale
(Linear \(-57dBm Input\)) t 
GR
GR
GS
[0.75 0 0 0.75 0 0] CT
0.494 0.184 0.557 RC
1 LJ
2.667 LW
N
113 348.291 M
153 348.291 L
S
GR
GS
[0.75 0 0 0.75 99.75 261.21792] CT
0.494 0.184 0.557 RC
10.0 ML
2.667 LW
N
-3.771 -3.771 M
3.771 3.771 L
-3.771 3.771 M
3.771 -3.771 L
S
GR
GS
[0.75 0 0 0.75 117 277.28208] CT
/Helvetica 16.8 F
GS
[1 0 0 1 0 0] CT
0 6.5 moveto 
1 -1 scale
(NL, Prop. Comp. \(-54dBm Input\)) t 
GR
GR
GS
[0.75 0 0 0.75 0 0] CT
0.851 0.325 0.098 RC
[8 8] 0 setdash
2 LJ
2.667 LW
N
113 369.709 M
153 369.709 L
S
GR
GS
[0.75 0 0 0.75 99.75 277.28208] CT
0.851 0.325 0.098 RC
10.0 ML
2.667 LW
N
5.333 0 M
5.333 -2.946 2.946 -5.333 0 -5.333 C
-2.946 -5.333 -5.333 -2.946 -5.333 0 C
-5.333 2.946 -2.946 5.333 0 5.333 C
2.946 5.333 5.333 2.946 5.333 0 C
cp
S
GR
GS
[0.75 0 0 0.75 117 293.34622] CT
/Helvetica 16.8 F
GS
[1 0 0 1 0 0] CT
0 6.5 moveto 
1 -1 scale
(NL, No Comp. \(-54dBm Input\)) t 
GR
GR
GS
[0.75 0 0 0.75 0 0] CT
0.851 0.325 0.098 RC
[8 2 4 2] 0 setdash
2 LJ
2.667 LW
N
113 391.128 M
153 391.128 L
S
GR
GS
[0.75 0 0 0.75 99.75 293.34622] CT
0.851 0.325 0.098 RC
10.0 ML
2.667 LW
N
-4 -4 M
-4 4 L
4 4 L
4 -4 L
cp
S
GR
GS
[0.75 0 0 0.75 117 309.41039] CT
/Helvetica 16.8 F
GS
[1 0 0 1 0 0] CT
0 6.5 moveto 
1 -1 scale
(Linear \(-54dBm Input\)) t 
GR
GR
GS
[0.75 0 0 0.75 0 0] CT
0.851 0.325 0.098 RC
1 LJ
2.667 LW
N
113 412.547 M
153 412.547 L
S
GR
GS
[0.75 0 0 0.75 99.75 309.41039] CT
0.851 0.325 0.098 RC
10.0 ML
2.667 LW
N
-3.771 -3.771 M
3.771 3.771 L
-3.771 3.771 M
3.771 -3.771 L
S
GR
GS
[0.75 0 0 0.75 0 0] CT
0.149 GC
10.0 ML
0.667 LW
N
109 425 M
109 293 L
402 293 L
402 425 L
cp
S
GR
%%Trailer
%%Pages: 1
%%EOF
