%!PS-Adobe-3.0 EPSF-3.0
%%Creator: (MATLAB, The Mathworks, Inc. Version 9.4.0.813654 \(R2018a\). Operating System: Windows 10)
%%Title: C:/Users/Han/Documents/imd_compensation/functions/cliping_comp.eps
%%CreationDate: 2019-03-02T18:51:33
%%Pages: (atend)
%%BoundingBox: 0 0 547 372
%%LanguageLevel: 3
%%EndComments
%%BeginProlog
%%BeginResource: procset (Apache XML Graphics Std ProcSet) 1.2 0
%%Version: 1.2 0
%%Copyright: (Copyright 2001-2003,2010 The Apache Software Foundation. License terms: http://www.apache.org/licenses/LICENSE-2.0)
/bd{bind def}bind def
/ld{load def}bd
/GR/grestore ld
/GS/gsave ld
/RM/rmoveto ld
/C/curveto ld
/t/show ld
/L/lineto ld
/ML/setmiterlimit ld
/CT/concat ld
/f/fill ld
/N/newpath ld
/S/stroke ld
/CC/setcmykcolor ld
/A/ashow ld
/cp/closepath ld
/RC/setrgbcolor ld
/LJ/setlinejoin ld
/GC/setgray ld
/LW/setlinewidth ld
/M/moveto ld
/re {4 2 roll M
1 index 0 rlineto
0 exch rlineto
neg 0 rlineto
cp } bd
/_ctm matrix def
/_tm matrix def
/BT { _ctm currentmatrix pop matrix _tm copy pop 0 0 moveto } bd
/ET { _ctm setmatrix } bd
/iTm { _ctm setmatrix _tm concat } bd
/Tm { _tm astore pop iTm 0 0 moveto } bd
/ux 0.0 def
/uy 0.0 def
/F {
  /Tp exch def
  /Tf exch def
  Tf findfont Tp scalefont setfont
  /cf Tf def  /cs Tp def
} bd
/ULS {currentpoint /uy exch def /ux exch def} bd
/ULE {
  /Tcx currentpoint pop def
  gsave
  newpath
  cf findfont cs scalefont dup
  /FontMatrix get 0 get /Ts exch def /FontInfo get dup
  /UnderlinePosition get Ts mul /To exch def
  /UnderlineThickness get Ts mul /Tt exch def
  ux uy To add moveto  Tcx uy To add lineto
  Tt setlinewidth stroke
  grestore
} bd
/OLE {
  /Tcx currentpoint pop def
  gsave
  newpath
  cf findfont cs scalefont dup
  /FontMatrix get 0 get /Ts exch def /FontInfo get dup
  /UnderlinePosition get Ts mul /To exch def
  /UnderlineThickness get Ts mul /Tt exch def
  ux uy To add cs add moveto Tcx uy To add cs add lineto
  Tt setlinewidth stroke
  grestore
} bd
/SOE {
  /Tcx currentpoint pop def
  gsave
  newpath
  cf findfont cs scalefont dup
  /FontMatrix get 0 get /Ts exch def /FontInfo get dup
  /UnderlinePosition get Ts mul /To exch def
  /UnderlineThickness get Ts mul /Tt exch def
  ux uy To add cs 10 mul 26 idiv add moveto Tcx uy To add cs 10 mul 26 idiv add lineto
  Tt setlinewidth stroke
  grestore
} bd
/QT {
/Y22 exch store
/X22 exch store
/Y21 exch store
/X21 exch store
currentpoint
/Y21 load 2 mul add 3 div exch
/X21 load 2 mul add 3 div exch
/X21 load 2 mul /X22 load add 3 div
/Y21 load 2 mul /Y22 load add 3 div
/X22 load /Y22 load curveto
} bd
/SSPD {
dup length /d exch dict def
{
/v exch def
/k exch def
currentpagedevice k known {
/cpdv currentpagedevice k get def
v cpdv ne {
/upd false def
/nullv v type /nulltype eq def
/nullcpdv cpdv type /nulltype eq def
nullv nullcpdv or
{
/upd true def
} {
/sametype v type cpdv type eq def
sametype {
v type /arraytype eq {
/vlen v length def
/cpdvlen cpdv length def
vlen cpdvlen eq {
0 1 vlen 1 sub {
/i exch def
/obj v i get def
/cpdobj cpdv i get def
obj cpdobj ne {
/upd true def
exit
} if
} for
} {
/upd true def
} ifelse
} {
v type /dicttype eq {
v {
/dv exch def
/dk exch def
/cpddv cpdv dk get def
dv cpddv ne {
/upd true def
exit
} if
} forall
} {
/upd true def
} ifelse
} ifelse
} if
} ifelse
upd true eq {
d k v put
} if
} if
} if
} forall
d length 0 gt {
d setpagedevice
} if
} bd
/RE { % /NewFontName [NewEncodingArray] /FontName RE -
  findfont dup length dict begin
  {
    1 index /FID ne
    {def} {pop pop} ifelse
  } forall
  /Encoding exch def
  /FontName 1 index def
  currentdict definefont pop
  end
} bind def
%%EndResource
%%BeginResource: procset (Apache XML Graphics EPS ProcSet) 1.0 0
%%Version: 1.0 0
%%Copyright: (Copyright 2002-2003 The Apache Software Foundation. License terms: http://www.apache.org/licenses/LICENSE-2.0)
/BeginEPSF { %def
/b4_Inc_state save def         % Save state for cleanup
/dict_count countdictstack def % Count objects on dict stack
/op_count count 1 sub def      % Count objects on operand stack
userdict begin                 % Push userdict on dict stack
/showpage { } def              % Redefine showpage, { } = null proc
0 setgray 0 setlinecap         % Prepare graphics state
1 setlinewidth 0 setlinejoin
10 setmiterlimit [ ] 0 setdash newpath
/languagelevel where           % If level not equal to 1 then
{pop languagelevel             % set strokeadjust and
1 ne                           % overprint to their defaults.
{false setstrokeadjust false setoverprint
} if
} if
} bd
/EndEPSF { %def
count op_count sub {pop} repeat            % Clean up stacks
countdictstack dict_count sub {end} repeat
b4_Inc_state restore
} bd
%%EndResource
%FOPBeginFontDict
%%IncludeResource: font Courier-Oblique
%%IncludeResource: font Courier-BoldOblique
%%IncludeResource: font Courier-Bold
%%IncludeResource: font ZapfDingbats
%%IncludeResource: font Symbol
%%IncludeResource: font Helvetica
%%IncludeResource: font Helvetica-Oblique
%%IncludeResource: font Helvetica-Bold
%%IncludeResource: font Helvetica-BoldOblique
%%IncludeResource: font Times-Roman
%%IncludeResource: font Times-Italic
%%IncludeResource: font Times-Bold
%%IncludeResource: font Times-BoldItalic
%%IncludeResource: font Courier
%FOPEndFontDict
%%BeginResource: encoding WinAnsiEncoding
/WinAnsiEncoding [
/.notdef /.notdef /.notdef /.notdef /.notdef
/.notdef /.notdef /.notdef /.notdef /.notdef
/.notdef /.notdef /.notdef /.notdef /.notdef
/.notdef /.notdef /.notdef /.notdef /.notdef
/.notdef /.notdef /.notdef /.notdef /.notdef
/.notdef /.notdef /.notdef /.notdef /.notdef
/.notdef /.notdef /space /exclam /quotedbl
/numbersign /dollar /percent /ampersand /quotesingle
/parenleft /parenright /asterisk /plus /comma
/hyphen /period /slash /zero /one
/two /three /four /five /six
/seven /eight /nine /colon /semicolon
/less /equal /greater /question /at
/A /B /C /D /E
/F /G /H /I /J
/K /L /M /N /O
/P /Q /R /S /T
/U /V /W /X /Y
/Z /bracketleft /backslash /bracketright /asciicircum
/underscore /quoteleft /a /b /c
/d /e /f /g /h
/i /j /k /l /m
/n /o /p /q /r
/s /t /u /v /w
/x /y /z /braceleft /bar
/braceright /asciitilde /bullet /Euro /bullet
/quotesinglbase /florin /quotedblbase /ellipsis /dagger
/daggerdbl /circumflex /perthousand /Scaron /guilsinglleft
/OE /bullet /Zcaron /bullet /bullet
/quoteleft /quoteright /quotedblleft /quotedblright /bullet
/endash /emdash /asciitilde /trademark /scaron
/guilsinglright /oe /bullet /zcaron /Ydieresis
/space /exclamdown /cent /sterling /currency
/yen /brokenbar /section /dieresis /copyright
/ordfeminine /guillemotleft /logicalnot /sfthyphen /registered
/macron /degree /plusminus /twosuperior /threesuperior
/acute /mu /paragraph /middot /cedilla
/onesuperior /ordmasculine /guillemotright /onequarter /onehalf
/threequarters /questiondown /Agrave /Aacute /Acircumflex
/Atilde /Adieresis /Aring /AE /Ccedilla
/Egrave /Eacute /Ecircumflex /Edieresis /Igrave
/Iacute /Icircumflex /Idieresis /Eth /Ntilde
/Ograve /Oacute /Ocircumflex /Otilde /Odieresis
/multiply /Oslash /Ugrave /Uacute /Ucircumflex
/Udieresis /Yacute /Thorn /germandbls /agrave
/aacute /acircumflex /atilde /adieresis /aring
/ae /ccedilla /egrave /eacute /ecircumflex
/edieresis /igrave /iacute /icircumflex /idieresis
/eth /ntilde /ograve /oacute /ocircumflex
/otilde /odieresis /divide /oslash /ugrave
/uacute /ucircumflex /udieresis /yacute /thorn
/ydieresis
] def
%%EndResource
%FOPBeginFontReencode
/Courier-Oblique findfont
dup length dict begin
  {1 index /FID ne {def} {pop pop} ifelse} forall
  /Encoding WinAnsiEncoding def
  currentdict
end
/Courier-Oblique exch definefont pop
/Courier-BoldOblique findfont
dup length dict begin
  {1 index /FID ne {def} {pop pop} ifelse} forall
  /Encoding WinAnsiEncoding def
  currentdict
end
/Courier-BoldOblique exch definefont pop
/Courier-Bold findfont
dup length dict begin
  {1 index /FID ne {def} {pop pop} ifelse} forall
  /Encoding WinAnsiEncoding def
  currentdict
end
/Courier-Bold exch definefont pop
/Helvetica findfont
dup length dict begin
  {1 index /FID ne {def} {pop pop} ifelse} forall
  /Encoding WinAnsiEncoding def
  currentdict
end
/Helvetica exch definefont pop
/Helvetica-Oblique findfont
dup length dict begin
  {1 index /FID ne {def} {pop pop} ifelse} forall
  /Encoding WinAnsiEncoding def
  currentdict
end
/Helvetica-Oblique exch definefont pop
/Helvetica-Bold findfont
dup length dict begin
  {1 index /FID ne {def} {pop pop} ifelse} forall
  /Encoding WinAnsiEncoding def
  currentdict
end
/Helvetica-Bold exch definefont pop
/Helvetica-BoldOblique findfont
dup length dict begin
  {1 index /FID ne {def} {pop pop} ifelse} forall
  /Encoding WinAnsiEncoding def
  currentdict
end
/Helvetica-BoldOblique exch definefont pop
/Times-Roman findfont
dup length dict begin
  {1 index /FID ne {def} {pop pop} ifelse} forall
  /Encoding WinAnsiEncoding def
  currentdict
end
/Times-Roman exch definefont pop
/Times-Italic findfont
dup length dict begin
  {1 index /FID ne {def} {pop pop} ifelse} forall
  /Encoding WinAnsiEncoding def
  currentdict
end
/Times-Italic exch definefont pop
/Times-Bold findfont
dup length dict begin
  {1 index /FID ne {def} {pop pop} ifelse} forall
  /Encoding WinAnsiEncoding def
  currentdict
end
/Times-Bold exch definefont pop
/Times-BoldItalic findfont
dup length dict begin
  {1 index /FID ne {def} {pop pop} ifelse} forall
  /Encoding WinAnsiEncoding def
  currentdict
end
/Times-BoldItalic exch definefont pop
/Courier findfont
dup length dict begin
  {1 index /FID ne {def} {pop pop} ifelse} forall
  /Encoding WinAnsiEncoding def
  currentdict
end
/Courier exch definefont pop
%FOPEndFontReencode
%%EndProlog
%%Page: 1 1
%%PageBoundingBox: 0 0 547 372
%%BeginPageSetup
[1 0 0 -1 0 372] CT
%%EndPageSetup
GS
[0.75 0 0 0.75 0 0] CT
1 GC
N
0 0 729 496 re
f
GR
GS
[0.75 0 0 0.75 0 0] CT
1 GC
N
0 0 729 496 re
f
GR
GS
[0.75 0 0 0.75 0 0] CT
1 GC
N
95 439 M
660 439 L
660 37 L
95 37 L
cp
f
GR
GS
[0.75 0 0 0.75 0 0] CT
0.873 GC
1 LJ
0.667 LW
N
95 439 M
95 37 L
S
GR
GS
[0.75 0 0 0.75 0 0] CT
0.873 GC
1 LJ
0.667 LW
N
189.167 439 M
189.167 37 L
S
GR
GS
[0.75 0 0 0.75 0 0] CT
0.873 GC
1 LJ
0.667 LW
N
283.333 439 M
283.333 37 L
S
GR
GS
[0.75 0 0 0.75 0 0] CT
0.873 GC
1 LJ
0.667 LW
N
377.5 439 M
377.5 37 L
S
GR
GS
[0.75 0 0 0.75 0 0] CT
0.873 GC
1 LJ
0.667 LW
N
471.667 439 M
471.667 37 L
S
GR
GS
[0.75 0 0 0.75 0 0] CT
0.873 GC
1 LJ
0.667 LW
N
565.833 439 M
565.833 37 L
S
GR
GS
[0.75 0 0 0.75 0 0] CT
0.873 GC
1 LJ
0.667 LW
N
660 439 M
660 37 L
S
GR
GS
[0.75 0 0 0.75 0 0] CT
0.873 GC
1 LJ
0.667 LW
N
660 439 M
95 439 L
S
GR
GS
[0.75 0 0 0.75 0 0] CT
0.873 GC
1 LJ
0.667 LW
N
660 381.571 M
95 381.571 L
S
GR
GS
[0.75 0 0 0.75 0 0] CT
0.873 GC
1 LJ
0.667 LW
N
660 324.143 M
95 324.143 L
S
GR
GS
[0.75 0 0 0.75 0 0] CT
0.873 GC
1 LJ
0.667 LW
N
660 266.714 M
95 266.714 L
S
GR
GS
[0.75 0 0 0.75 0 0] CT
0.873 GC
1 LJ
0.667 LW
N
660 209.286 M
95 209.286 L
S
GR
GS
[0.75 0 0 0.75 0 0] CT
0.873 GC
1 LJ
0.667 LW
N
660 151.857 M
95 151.857 L
S
GR
GS
[0.75 0 0 0.75 0 0] CT
0.873 GC
1 LJ
0.667 LW
N
660 94.429 M
95 94.429 L
S
GR
GS
[0.75 0 0 0.75 0 0] CT
0.873 GC
1 LJ
0.667 LW
N
660 37 M
95 37 L
S
GR
GS
[0.75 0 0 0.75 0 0] CT
0.149 GC
2 setlinecap
1 LJ
0.667 LW
N
95 439 M
660 439 L
S
GR
GS
[0.75 0 0 0.75 0 0] CT
0.149 GC
2 setlinecap
1 LJ
0.667 LW
N
95 37 M
660 37 L
S
GR
GS
[0.75 0 0 0.75 0 0] CT
0.149 GC
2 setlinecap
1 LJ
0.667 LW
N
95 439 M
95 433.35 L
S
GR
GS
[0.75 0 0 0.75 0 0] CT
0.149 GC
2 setlinecap
1 LJ
0.667 LW
N
189.167 439 M
189.167 433.35 L
S
GR
GS
[0.75 0 0 0.75 0 0] CT
0.149 GC
2 setlinecap
1 LJ
0.667 LW
N
283.333 439 M
283.333 433.35 L
S
GR
GS
[0.75 0 0 0.75 0 0] CT
0.149 GC
2 setlinecap
1 LJ
0.667 LW
N
377.5 439 M
377.5 433.35 L
S
GR
GS
[0.75 0 0 0.75 0 0] CT
0.149 GC
2 setlinecap
1 LJ
0.667 LW
N
471.667 439 M
471.667 433.35 L
S
GR
GS
[0.75 0 0 0.75 0 0] CT
0.149 GC
2 setlinecap
1 LJ
0.667 LW
N
565.833 439 M
565.833 433.35 L
S
GR
GS
[0.75 0 0 0.75 0 0] CT
0.149 GC
2 setlinecap
1 LJ
0.667 LW
N
660 439 M
660 433.35 L
S
GR
GS
[0.75 0 0 0.75 0 0] CT
0.149 GC
2 setlinecap
1 LJ
0.667 LW
N
95 37 M
95 42.65 L
S
GR
GS
[0.75 0 0 0.75 0 0] CT
0.149 GC
2 setlinecap
1 LJ
0.667 LW
N
189.167 37 M
189.167 42.65 L
S
GR
GS
[0.75 0 0 0.75 0 0] CT
0.149 GC
2 setlinecap
1 LJ
0.667 LW
N
283.333 37 M
283.333 42.65 L
S
GR
GS
[0.75 0 0 0.75 0 0] CT
0.149 GC
2 setlinecap
1 LJ
0.667 LW
N
377.5 37 M
377.5 42.65 L
S
GR
GS
[0.75 0 0 0.75 0 0] CT
0.149 GC
2 setlinecap
1 LJ
0.667 LW
N
471.667 37 M
471.667 42.65 L
S
GR
GS
[0.75 0 0 0.75 0 0] CT
0.149 GC
2 setlinecap
1 LJ
0.667 LW
N
565.833 37 M
565.833 42.65 L
S
GR
GS
[0.75 0 0 0.75 0 0] CT
0.149 GC
2 setlinecap
1 LJ
0.667 LW
N
660 37 M
660 42.65 L
S
GR
GS
[0.75 0 0 0.75 71.25 334.05002] CT
0.149 GC
/Helvetica 18.667 F
GS
[1 0 0 1 0 0] CT
-5.5 19 moveto 
1 -1 scale
(3) t 
GR
GR
GS
[0.75 0 0 0.75 141.875 334.05002] CT
0.149 GC
/Helvetica 18.667 F
GS
[1 0 0 1 0 0] CT
-13 19 moveto 
1 -1 scale
(3.5) t 
GR
GR
GS
[0.75 0 0 0.75 212.50001 334.05002] CT
0.149 GC
/Helvetica 18.667 F
GS
[1 0 0 1 0 0] CT
-5.5 19 moveto 
1 -1 scale
(4) t 
GR
GR
GS
[0.75 0 0 0.75 283.125 334.05002] CT
0.149 GC
/Helvetica 18.667 F
GS
[1 0 0 1 0 0] CT
-13 19 moveto 
1 -1 scale
(4.5) t 
GR
GR
GS
[0.75 0 0 0.75 353.74999 334.05002] CT
0.149 GC
/Helvetica 18.667 F
GS
[1 0 0 1 0 0] CT
-5.5 19 moveto 
1 -1 scale
(5) t 
GR
GR
GS
[0.75 0 0 0.75 424.37498 334.05002] CT
0.149 GC
/Helvetica 18.667 F
GS
[1 0 0 1 0 0] CT
-13 19 moveto 
1 -1 scale
(5.5) t 
GR
GR
GS
[0.75 0 0 0.75 495 334.05002] CT
0.149 GC
/Helvetica 18.667 F
GS
[1 0 0 1 0 0] CT
-5.5 19 moveto 
1 -1 scale
(6) t 
GR
GR
GS
[0.75 0 0 0.75 283.12521 352.3] CT
0.149 GC
/Helvetica 20.533 F
GS
[1 0 0 1 0 0] CT
-42 21 moveto 
1 -1 scale
(ADC Bits) t 
GR
GR
GS
[0.75 0 0 0.75 0 0] CT
0.149 GC
2 setlinecap
1 LJ
0.667 LW
N
95 439 M
95 37 L
S
GR
GS
[0.75 0 0 0.75 0 0] CT
0.149 GC
2 setlinecap
1 LJ
0.667 LW
N
660 439 M
660 37 L
S
GR
GS
[0.75 0 0 0.75 0 0] CT
0.149 GC
2 setlinecap
1 LJ
0.667 LW
N
95 439 M
100.65 439 L
S
GR
GS
[0.75 0 0 0.75 0 0] CT
0.149 GC
2 setlinecap
1 LJ
0.667 LW
N
95 381.571 M
100.65 381.571 L
S
GR
GS
[0.75 0 0 0.75 0 0] CT
0.149 GC
2 setlinecap
1 LJ
0.667 LW
N
95 324.143 M
100.65 324.143 L
S
GR
GS
[0.75 0 0 0.75 0 0] CT
0.149 GC
2 setlinecap
1 LJ
0.667 LW
N
95 266.714 M
100.65 266.714 L
S
GR
GS
[0.75 0 0 0.75 0 0] CT
0.149 GC
2 setlinecap
1 LJ
0.667 LW
N
95 209.286 M
100.65 209.286 L
S
GR
GS
[0.75 0 0 0.75 0 0] CT
0.149 GC
2 setlinecap
1 LJ
0.667 LW
N
95 151.857 M
100.65 151.857 L
S
GR
GS
[0.75 0 0 0.75 0 0] CT
0.149 GC
2 setlinecap
1 LJ
0.667 LW
N
95 94.429 M
100.65 94.429 L
S
GR
GS
[0.75 0 0 0.75 0 0] CT
0.149 GC
2 setlinecap
1 LJ
0.667 LW
N
95 37 M
100.65 37 L
S
GR
GS
[0.75 0 0 0.75 0 0] CT
0.149 GC
2 setlinecap
1 LJ
0.667 LW
N
660 439 M
654.35 439 L
S
GR
GS
[0.75 0 0 0.75 0 0] CT
0.149 GC
2 setlinecap
1 LJ
0.667 LW
N
660 381.571 M
654.35 381.571 L
S
GR
GS
[0.75 0 0 0.75 0 0] CT
0.149 GC
2 setlinecap
1 LJ
0.667 LW
N
660 324.143 M
654.35 324.143 L
S
GR
GS
[0.75 0 0 0.75 0 0] CT
0.149 GC
2 setlinecap
1 LJ
0.667 LW
N
660 266.714 M
654.35 266.714 L
S
GR
GS
[0.75 0 0 0.75 0 0] CT
0.149 GC
2 setlinecap
1 LJ
0.667 LW
N
660 209.286 M
654.35 209.286 L
S
GR
GS
[0.75 0 0 0.75 0 0] CT
0.149 GC
2 setlinecap
1 LJ
0.667 LW
N
660 151.857 M
654.35 151.857 L
S
GR
GS
[0.75 0 0 0.75 0 0] CT
0.149 GC
2 setlinecap
1 LJ
0.667 LW
N
660 94.429 M
654.35 94.429 L
S
GR
GS
[0.75 0 0 0.75 0 0] CT
0.149 GC
2 setlinecap
1 LJ
0.667 LW
N
660 37 M
654.35 37 L
S
GR
GS
[0.75 0 0 0.75 66.45 329.25] CT
0.149 GC
/Helvetica 18.667 F
GS
[1 0 0 1 0 0] CT
-27 7 moveto 
1 -1 scale
(-30) t 
GR
GR
GS
[0.75 0 0 0.75 66.45 286.17858] CT
0.149 GC
/Helvetica 18.667 F
GS
[1 0 0 1 0 0] CT
-27 7 moveto 
1 -1 scale
(-25) t 
GR
GR
GS
[0.75 0 0 0.75 66.45 243.10714] CT
0.149 GC
/Helvetica 18.667 F
GS
[1 0 0 1 0 0] CT
-27 7 moveto 
1 -1 scale
(-20) t 
GR
GR
GS
[0.75 0 0 0.75 66.45 200.03572] CT
0.149 GC
/Helvetica 18.667 F
GS
[1 0 0 1 0 0] CT
-27 7 moveto 
1 -1 scale
(-15) t 
GR
GR
GS
[0.75 0 0 0.75 66.45 156.96429] CT
0.149 GC
/Helvetica 18.667 F
GS
[1 0 0 1 0 0] CT
-27 7 moveto 
1 -1 scale
(-10) t 
GR
GR
GS
[0.75 0 0 0.75 66.45 113.89286] CT
0.149 GC
/Helvetica 18.667 F
GS
[1 0 0 1 0 0] CT
-17 7 moveto 
1 -1 scale
(-5) t 
GR
GR
GS
[0.75 0 0 0.75 66.45 70.82143] CT
0.149 GC
/Helvetica 18.667 F
GS
[1 0 0 1 0 0] CT
-11 7 moveto 
1 -1 scale
(0) t 
GR
GR
GS
[0.75 0 0 0.75 66.45 27.75] CT
0.149 GC
/Helvetica 18.667 F
GS
[1 0 0 1 0 0] CT
-11 7 moveto 
1 -1 scale
(5) t 
GR
GR
GS
[0 -0.75 0.75 0 43.2 178.49986] CT
0.149 GC
/Helvetica 20.533 F
GS
[1 0 0 1 0 0] CT
-119.5 -5 moveto 
1 -1 scale
(Normalized Distortion [dB]) t 
GR
GR
GS
[0.75 0 0 0.75 0 0] CT
0.851 0.325 0.098 RC
[8 2 4 2] 0 setdash
2 LJ
2.667 LW
N
95 135.725 M
283.333 215.225 L
471.667 286.098 L
660 354.642 L
S
GR
GS
[0.75 0 0 0.75 71.25 101.79362] CT
0.851 0.325 0.098 RC
10.0 ML
2.667 LW
N
5.333 0 M
5.333 -2.946 2.946 -5.333 0 -5.333 C
-2.946 -5.333 -5.333 -2.946 -5.333 0 C
-5.333 2.946 -2.946 5.333 0 5.333 C
2.946 5.333 5.333 2.946 5.333 0 C
cp
S
GR
GS
[0.75 0 0 0.75 212.50001 161.41867] CT
0.851 0.325 0.098 RC
10.0 ML
2.667 LW
N
5.333 0 M
5.333 -2.946 2.946 -5.333 0 -5.333 C
-2.946 -5.333 -5.333 -2.946 -5.333 0 C
-5.333 2.946 -2.946 5.333 0 5.333 C
2.946 5.333 5.333 2.946 5.333 0 C
cp
S
GR
GS
[0.75 0 0 0.75 353.74999 214.57359] CT
0.851 0.325 0.098 RC
10.0 ML
2.667 LW
N
5.333 0 M
5.333 -2.946 2.946 -5.333 0 -5.333 C
-2.946 -5.333 -5.333 -2.946 -5.333 0 C
-5.333 2.946 -2.946 5.333 0 5.333 C
2.946 5.333 5.333 2.946 5.333 0 C
cp
S
GR
GS
[0.75 0 0 0.75 495 265.98127] CT
0.851 0.325 0.098 RC
10.0 ML
2.667 LW
N
5.333 0 M
5.333 -2.946 2.946 -5.333 0 -5.333 C
-2.946 -5.333 -5.333 -2.946 -5.333 0 C
-5.333 2.946 -2.946 5.333 0 5.333 C
2.946 5.333 5.333 2.946 5.333 0 C
cp
S
GR
GS
[0.75 0 0 0.75 0 0] CT
0.851 0.325 0.098 RC
[8 8] 0 setdash
2 LJ
2.667 LW
N
95 146.83 M
283.333 221.774 L
471.667 291.864 L
660 360.543 L
S
GR
GS
[0.75 0 0 0.75 71.25 110.12225] CT
0.851 0.325 0.098 RC
10.0 ML
2.667 LW
N
-4 -4 M
-4 4 L
4 4 L
4 -4 L
cp
S
GR
GS
[0.75 0 0 0.75 212.50001 166.33019] CT
0.851 0.325 0.098 RC
10.0 ML
2.667 LW
N
-4 -4 M
-4 4 L
4 4 L
4 -4 L
cp
S
GR
GS
[0.75 0 0 0.75 353.74999 218.89792] CT
0.851 0.325 0.098 RC
10.0 ML
2.667 LW
N
-4 -4 M
-4 4 L
4 4 L
4 -4 L
cp
S
GR
GS
[0.75 0 0 0.75 495 270.40704] CT
0.851 0.325 0.098 RC
10.0 ML
2.667 LW
N
-4 -4 M
-4 4 L
4 4 L
4 -4 L
cp
S
GR
GS
[0.75 0 0 0.75 0 0] CT
0.851 0.325 0.098 RC
1 LJ
2.667 LW
N
95 163.796 M
283.333 231.585 L
471.667 296.48 L
660 362.803 L
S
GR
GS
[0.75 0 0 0.75 71.25 122.84699] CT
0.851 0.325 0.098 RC
10.0 ML
2.667 LW
N
-3.771 -3.771 M
3.771 3.771 L
-3.771 3.771 M
3.771 -3.771 L
S
GR
GS
[0.75 0 0 0.75 212.50001 173.68909] CT
0.851 0.325 0.098 RC
10.0 ML
2.667 LW
N
-3.771 -3.771 M
3.771 3.771 L
-3.771 3.771 M
3.771 -3.771 L
S
GR
GS
[0.75 0 0 0.75 353.74999 222.36019] CT
0.851 0.325 0.098 RC
10.0 ML
2.667 LW
N
-3.771 -3.771 M
3.771 3.771 L
-3.771 3.771 M
3.771 -3.771 L
S
GR
GS
[0.75 0 0 0.75 495 272.10251] CT
0.851 0.325 0.098 RC
10.0 ML
2.667 LW
N
-3.771 -3.771 M
3.771 3.771 L
-3.771 3.771 M
3.771 -3.771 L
S
GR
GS
[0.75 0 0 0.75 0 0] CT
0 0.447 0.741 RC
[8 8] 0 setdash
2 LJ
2.667 LW
N
95 113.84 M
283.333 188.216 L
471.667 259.831 L
660 333.427 L
S
GR
GS
[0.75 0 0 0.75 71.25 85.37981] CT
0 0.447 0.741 RC
10.0 ML
2.667 LW
N
5.333 0 M
5.333 -2.946 2.946 -5.333 0 -5.333 C
-2.946 -5.333 -5.333 -2.946 -5.333 0 C
-5.333 2.946 -2.946 5.333 0 5.333 C
2.946 5.333 5.333 2.946 5.333 0 C
cp
S
GR
GS
[0.75 0 0 0.75 212.50001 141.16203] CT
0 0.447 0.741 RC
10.0 ML
2.667 LW
N
5.333 0 M
5.333 -2.946 2.946 -5.333 0 -5.333 C
-2.946 -5.333 -5.333 -2.946 -5.333 0 C
-5.333 2.946 -2.946 5.333 0 5.333 C
2.946 5.333 5.333 2.946 5.333 0 C
cp
S
GR
GS
[0.75 0 0 0.75 353.74999 194.87288] CT
0 0.447 0.741 RC
10.0 ML
2.667 LW
N
5.333 0 M
5.333 -2.946 2.946 -5.333 0 -5.333 C
-2.946 -5.333 -5.333 -2.946 -5.333 0 C
-5.333 2.946 -2.946 5.333 0 5.333 C
2.946 5.333 5.333 2.946 5.333 0 C
cp
S
GR
GS
[0.75 0 0 0.75 495 250.07043] CT
0 0.447 0.741 RC
10.0 ML
2.667 LW
N
5.333 0 M
5.333 -2.946 2.946 -5.333 0 -5.333 C
-2.946 -5.333 -5.333 -2.946 -5.333 0 C
-5.333 2.946 -2.946 5.333 0 5.333 C
2.946 5.333 5.333 2.946 5.333 0 C
cp
S
GR
GS
[0.75 0 0 0.75 0 0] CT
0 0.447 0.741 RC
[8 2 4 2] 0 setdash
2 LJ
2.667 LW
N
95 133.346 M
283.333 199.915 L
471.667 254.268 L
660 288.543 L
S
GR
GS
[0.75 0 0 0.75 71.25 100.00935] CT
0 0.447 0.741 RC
10.0 ML
2.667 LW
N
-4 -4 M
-4 4 L
4 4 L
4 -4 L
cp
S
GR
GS
[0.75 0 0 0.75 212.50001 149.93655] CT
0 0.447 0.741 RC
10.0 ML
2.667 LW
N
-4 -4 M
-4 4 L
4 4 L
4 -4 L
cp
S
GR
GS
[0.75 0 0 0.75 353.74999 190.70071] CT
0 0.447 0.741 RC
10.0 ML
2.667 LW
N
-4 -4 M
-4 4 L
4 4 L
4 -4 L
cp
S
GR
GS
[0.75 0 0 0.75 495 216.40695] CT
0 0.447 0.741 RC
10.0 ML
2.667 LW
N
-4 -4 M
-4 4 L
4 4 L
4 -4 L
cp
S
GR
GS
[0.75 0 0 0.75 0 0] CT
0 0.447 0.741 RC
1 LJ
2.667 LW
N
95 129.272 M
283.333 196.457 L
471.667 260.532 L
660 328.846 L
S
GR
GS
[0.75 0 0 0.75 71.25 96.95377] CT
0 0.447 0.741 RC
10.0 ML
2.667 LW
N
-3.771 -3.771 M
3.771 3.771 L
-3.771 3.771 M
3.771 -3.771 L
S
GR
GS
[0.75 0 0 0.75 212.50001 147.34275] CT
0 0.447 0.741 RC
10.0 ML
2.667 LW
N
-3.771 -3.771 M
3.771 3.771 L
-3.771 3.771 M
3.771 -3.771 L
S
GR
GS
[0.75 0 0 0.75 353.74999 195.39912] CT
0 0.447 0.741 RC
10.0 ML
2.667 LW
N
-3.771 -3.771 M
3.771 3.771 L
-3.771 3.771 M
3.771 -3.771 L
S
GR
GS
[0.75 0 0 0.75 495 246.63421] CT
0 0.447 0.741 RC
10.0 ML
2.667 LW
N
-3.771 -3.771 M
3.771 3.771 L
-3.771 3.771 M
3.771 -3.771 L
S
GR
GS
[0.75 0 0 0.75 0 0] CT
0 0.498 0 RC
[8 8] 0 setdash
2 LJ
2.667 LW
N
95 97.678 M
283.333 170.227 L
471.667 236.714 L
660 314.705 L
S
GR
GS
[0.75 0 0 0.75 71.25 73.25851] CT
0 0.498 0 RC
10.0 ML
2.667 LW
N
5.333 0 M
5.333 -2.946 2.946 -5.333 0 -5.333 C
-2.946 -5.333 -5.333 -2.946 -5.333 0 C
-5.333 2.946 -2.946 5.333 0 5.333 C
2.946 5.333 5.333 2.946 5.333 0 C
cp
S
GR
GS
[0.75 0 0 0.75 212.50001 127.66996] CT
0 0.498 0 RC
10.0 ML
2.667 LW
N
5.333 0 M
5.333 -2.946 2.946 -5.333 0 -5.333 C
-2.946 -5.333 -5.333 -2.946 -5.333 0 C
-5.333 2.946 -2.946 5.333 0 5.333 C
2.946 5.333 5.333 2.946 5.333 0 C
cp
S
GR
GS
[0.75 0 0 0.75 353.74999 177.53524] CT
0 0.498 0 RC
10.0 ML
2.667 LW
N
5.333 0 M
5.333 -2.946 2.946 -5.333 0 -5.333 C
-2.946 -5.333 -5.333 -2.946 -5.333 0 C
-5.333 2.946 -2.946 5.333 0 5.333 C
2.946 5.333 5.333 2.946 5.333 0 C
cp
S
GR
GS
[0.75 0 0 0.75 495 236.02895] CT
0 0.498 0 RC
10.0 ML
2.667 LW
N
5.333 0 M
5.333 -2.946 2.946 -5.333 0 -5.333 C
-2.946 -5.333 -5.333 -2.946 -5.333 0 C
-5.333 2.946 -2.946 5.333 0 5.333 C
2.946 5.333 5.333 2.946 5.333 0 C
cp
S
GR
GS
[0.75 0 0 0.75 0 0] CT
0 0.498 0 RC
[8 2 4 2] 0 setdash
2 LJ
2.667 LW
N
95 80.591 M
283.333 106.298 L
471.667 115.132 L
660 118.051 L
S
GR
GS
[0.75 0 0 0.75 71.25 60.44353] CT
0 0.498 0 RC
10.0 ML
2.667 LW
N
-4 -4 M
-4 4 L
4 4 L
4 -4 L
cp
S
GR
GS
[0.75 0 0 0.75 212.50001 79.72366] CT
0 0.498 0 RC
10.0 ML
2.667 LW
N
-4 -4 M
-4 4 L
4 4 L
4 -4 L
cp
S
GR
GS
[0.75 0 0 0.75 353.74999 86.34876] CT
0 0.498 0 RC
10.0 ML
2.667 LW
N
-4 -4 M
-4 4 L
4 4 L
4 -4 L
cp
S
GR
GS
[0.75 0 0 0.75 495 88.53834] CT
0 0.498 0 RC
10.0 ML
2.667 LW
N
-4 -4 M
-4 4 L
4 4 L
4 -4 L
cp
S
GR
GS
[0.75 0 0 0.75 0 0] CT
0 0.498 0 RC
1 LJ
2.667 LW
N
95 94.503 M
283.333 161.789 L
471.667 225.251 L
660 294.319 L
S
GR
GS
[0.75 0 0 0.75 71.25 70.87747] CT
0 0.498 0 RC
10.0 ML
2.667 LW
N
-3.771 -3.771 M
3.771 3.771 L
-3.771 3.771 M
3.771 -3.771 L
S
GR
GS
[0.75 0 0 0.75 212.50001 121.34164] CT
0 0.498 0 RC
10.0 ML
2.667 LW
N
-3.771 -3.771 M
3.771 3.771 L
-3.771 3.771 M
3.771 -3.771 L
S
GR
GS
[0.75 0 0 0.75 353.74999 168.93831] CT
0 0.498 0 RC
10.0 ML
2.667 LW
N
-3.771 -3.771 M
3.771 3.771 L
-3.771 3.771 M
3.771 -3.771 L
S
GR
GS
[0.75 0 0 0.75 495 220.7395] CT
0 0.498 0 RC
10.0 ML
2.667 LW
N
-3.771 -3.771 M
3.771 3.771 L
-3.771 3.771 M
3.771 -3.771 L
S
GR
GS
[0.75 0 0 0.75 0 0] CT
1 GC
N
401 428 M
401 231 L
108 231 L
108 428 L
cp
f
GR
GS
[0.75 0 0 0.75 116.25 182.625] CT
/Helvetica 16.8 F
GS
[1 0 0 1 0 0] CT
0 6.5 moveto 
1 -1 scale
(NL, Prop. Comp. \(-54dBm Input\)) t 
GR
GR
GS
[0.75 0 0 0.75 0 0] CT
0.851 0.325 0.098 RC
[8 2 4 2] 0 setdash
2 LJ
2.667 LW
N
112 243.5 M
152 243.5 L
S
GR
GS
[0.75 0 0 0.75 99 182.625] CT
0.851 0.325 0.098 RC
10.0 ML
2.667 LW
N
5.333 0 M
5.333 -2.946 2.946 -5.333 0 -5.333 C
-2.946 -5.333 -5.333 -2.946 -5.333 0 C
-5.333 2.946 -2.946 5.333 0 5.333 C
2.946 5.333 5.333 2.946 5.333 0 C
cp
S
GR
GS
[0.75 0 0 0.75 116.25 198.75] CT
/Helvetica 16.8 F
GS
[1 0 0 1 0 0] CT
0 6.5 moveto 
1 -1 scale
(NL, No Comp. \(-54dBm Input\)) t 
GR
GR
GS
[0.75 0 0 0.75 0 0] CT
0.851 0.325 0.098 RC
[8 8] 0 setdash
2 LJ
2.667 LW
N
112 265 M
152 265 L
S
GR
GS
[0.75 0 0 0.75 99 198.75] CT
0.851 0.325 0.098 RC
10.0 ML
2.667 LW
N
-4 -4 M
-4 4 L
4 4 L
4 -4 L
cp
S
GR
GS
[0.75 0 0 0.75 116.25 214.875] CT
/Helvetica 16.8 F
GS
[1 0 0 1 0 0] CT
0 6.5 moveto 
1 -1 scale
(Linear \(-54dBm Input\)) t 
GR
GR
GS
[0.75 0 0 0.75 0 0] CT
0.851 0.325 0.098 RC
1 LJ
2.667 LW
N
112 286.5 M
152 286.5 L
S
GR
GS
[0.75 0 0 0.75 99 214.875] CT
0.851 0.325 0.098 RC
10.0 ML
2.667 LW
N
-3.771 -3.771 M
3.771 3.771 L
-3.771 3.771 M
3.771 -3.771 L
S
GR
GS
[0.75 0 0 0.75 116.25 231] CT
/Helvetica 16.8 F
GS
[1 0 0 1 0 0] CT
0 6.5 moveto 
1 -1 scale
(NL, Prop. Comp. \(-51dBm Input\)) t 
GR
GR
GS
[0.75 0 0 0.75 0 0] CT
0 0.447 0.741 RC
[8 8] 0 setdash
2 LJ
2.667 LW
N
112 308 M
152 308 L
S
GR
GS
[0.75 0 0 0.75 99 231] CT
0 0.447 0.741 RC
10.0 ML
2.667 LW
N
5.333 0 M
5.333 -2.946 2.946 -5.333 0 -5.333 C
-2.946 -5.333 -5.333 -2.946 -5.333 0 C
-5.333 2.946 -2.946 5.333 0 5.333 C
2.946 5.333 5.333 2.946 5.333 0 C
cp
S
GR
GS
[0.75 0 0 0.75 116.25 247.125] CT
/Helvetica 16.8 F
GS
[1 0 0 1 0 0] CT
0 6.5 moveto 
1 -1 scale
(NL, No Comp. \(-51dBm Input\)) t 
GR
GR
GS
[0.75 0 0 0.75 0 0] CT
0 0.447 0.741 RC
[8 2 4 2] 0 setdash
2 LJ
2.667 LW
N
112 329.5 M
152 329.5 L
S
GR
GS
[0.75 0 0 0.75 99 247.125] CT
0 0.447 0.741 RC
10.0 ML
2.667 LW
N
-4 -4 M
-4 4 L
4 4 L
4 -4 L
cp
S
GR
GS
[0.75 0 0 0.75 116.25 263.25] CT
/Helvetica 16.8 F
GS
[1 0 0 1 0 0] CT
0 6.5 moveto 
1 -1 scale
(Linear \(-51dBm Input\)) t 
GR
GR
GS
[0.75 0 0 0.75 0 0] CT
0 0.447 0.741 RC
1 LJ
2.667 LW
N
112 351 M
152 351 L
S
GR
GS
[0.75 0 0 0.75 99 263.25] CT
0 0.447 0.741 RC
10.0 ML
2.667 LW
N
-3.771 -3.771 M
3.771 3.771 L
-3.771 3.771 M
3.771 -3.771 L
S
GR
GS
[0.75 0 0 0.75 116.25 279.375] CT
/Helvetica 16.8 F
GS
[1 0 0 1 0 0] CT
0 6.5 moveto 
1 -1 scale
(NL, Prop. Comp. \(-48dBm Input\)) t 
GR
GR
GS
[0.75 0 0 0.75 0 0] CT
0 0.498 0 RC
[8 8] 0 setdash
2 LJ
2.667 LW
N
112 372.5 M
152 372.5 L
S
GR
GS
[0.75 0 0 0.75 99 279.375] CT
0 0.498 0 RC
10.0 ML
2.667 LW
N
5.333 0 M
5.333 -2.946 2.946 -5.333 0 -5.333 C
-2.946 -5.333 -5.333 -2.946 -5.333 0 C
-5.333 2.946 -2.946 5.333 0 5.333 C
2.946 5.333 5.333 2.946 5.333 0 C
cp
S
GR
GS
[0.75 0 0 0.75 116.25 295.5] CT
/Helvetica 16.8 F
GS
[1 0 0 1 0 0] CT
0 6.5 moveto 
1 -1 scale
(NL, No Comp. \(-48dBm Input\)) t 
GR
GR
GS
[0.75 0 0 0.75 0 0] CT
0 0.498 0 RC
[8 2 4 2] 0 setdash
2 LJ
2.667 LW
N
112 394 M
152 394 L
S
GR
GS
[0.75 0 0 0.75 99 295.5] CT
0 0.498 0 RC
10.0 ML
2.667 LW
N
-4 -4 M
-4 4 L
4 4 L
4 -4 L
cp
S
GR
GS
[0.75 0 0 0.75 116.25 311.625] CT
/Helvetica 16.8 F
GS
[1 0 0 1 0 0] CT
0 6.5 moveto 
1 -1 scale
(Linear \(-48dBm Input\)) t 
GR
GR
GS
[0.75 0 0 0.75 0 0] CT
0 0.498 0 RC
1 LJ
2.667 LW
N
112 415.5 M
152 415.5 L
S
GR
GS
[0.75 0 0 0.75 99 311.625] CT
0 0.498 0 RC
10.0 ML
2.667 LW
N
-3.771 -3.771 M
3.771 3.771 L
-3.771 3.771 M
3.771 -3.771 L
S
GR
GS
[0.75 0 0 0.75 0 0] CT
0.149 GC
10.0 ML
0.667 LW
N
108 428 M
108 231 L
401 231 L
401 428 L
cp
S
GR
%%Trailer
%%Pages: 1
%%EOF
