%!PS-Adobe-3.0 EPSF-3.0
%%Creator: (MATLAB, The Mathworks, Inc. Version 9.4.0.813654 \(R2018a\). Operating System: Windows 10)
%%Title: C:/Users/Han/Documents/imd_compensation/figures/SIR_vs_IP3.eps
%%CreationDate: 2019-03-03T14:57:11
%%Pages: (atend)
%%BoundingBox: 0 0 547 375
%%LanguageLevel: 3
%%EndComments
%%BeginProlog
%%BeginResource: procset (Apache XML Graphics Std ProcSet) 1.2 0
%%Version: 1.2 0
%%Copyright: (Copyright 2001-2003,2010 The Apache Software Foundation. License terms: http://www.apache.org/licenses/LICENSE-2.0)
/bd{bind def}bind def
/ld{load def}bd
/GR/grestore ld
/GS/gsave ld
/RM/rmoveto ld
/C/curveto ld
/t/show ld
/L/lineto ld
/ML/setmiterlimit ld
/CT/concat ld
/f/fill ld
/N/newpath ld
/S/stroke ld
/CC/setcmykcolor ld
/A/ashow ld
/cp/closepath ld
/RC/setrgbcolor ld
/LJ/setlinejoin ld
/GC/setgray ld
/LW/setlinewidth ld
/M/moveto ld
/re {4 2 roll M
1 index 0 rlineto
0 exch rlineto
neg 0 rlineto
cp } bd
/_ctm matrix def
/_tm matrix def
/BT { _ctm currentmatrix pop matrix _tm copy pop 0 0 moveto } bd
/ET { _ctm setmatrix } bd
/iTm { _ctm setmatrix _tm concat } bd
/Tm { _tm astore pop iTm 0 0 moveto } bd
/ux 0.0 def
/uy 0.0 def
/F {
  /Tp exch def
  /Tf exch def
  Tf findfont Tp scalefont setfont
  /cf Tf def  /cs Tp def
} bd
/ULS {currentpoint /uy exch def /ux exch def} bd
/ULE {
  /Tcx currentpoint pop def
  gsave
  newpath
  cf findfont cs scalefont dup
  /FontMatrix get 0 get /Ts exch def /FontInfo get dup
  /UnderlinePosition get Ts mul /To exch def
  /UnderlineThickness get Ts mul /Tt exch def
  ux uy To add moveto  Tcx uy To add lineto
  Tt setlinewidth stroke
  grestore
} bd
/OLE {
  /Tcx currentpoint pop def
  gsave
  newpath
  cf findfont cs scalefont dup
  /FontMatrix get 0 get /Ts exch def /FontInfo get dup
  /UnderlinePosition get Ts mul /To exch def
  /UnderlineThickness get Ts mul /Tt exch def
  ux uy To add cs add moveto Tcx uy To add cs add lineto
  Tt setlinewidth stroke
  grestore
} bd
/SOE {
  /Tcx currentpoint pop def
  gsave
  newpath
  cf findfont cs scalefont dup
  /FontMatrix get 0 get /Ts exch def /FontInfo get dup
  /UnderlinePosition get Ts mul /To exch def
  /UnderlineThickness get Ts mul /Tt exch def
  ux uy To add cs 10 mul 26 idiv add moveto Tcx uy To add cs 10 mul 26 idiv add lineto
  Tt setlinewidth stroke
  grestore
} bd
/QT {
/Y22 exch store
/X22 exch store
/Y21 exch store
/X21 exch store
currentpoint
/Y21 load 2 mul add 3 div exch
/X21 load 2 mul add 3 div exch
/X21 load 2 mul /X22 load add 3 div
/Y21 load 2 mul /Y22 load add 3 div
/X22 load /Y22 load curveto
} bd
/SSPD {
dup length /d exch dict def
{
/v exch def
/k exch def
currentpagedevice k known {
/cpdv currentpagedevice k get def
v cpdv ne {
/upd false def
/nullv v type /nulltype eq def
/nullcpdv cpdv type /nulltype eq def
nullv nullcpdv or
{
/upd true def
} {
/sametype v type cpdv type eq def
sametype {
v type /arraytype eq {
/vlen v length def
/cpdvlen cpdv length def
vlen cpdvlen eq {
0 1 vlen 1 sub {
/i exch def
/obj v i get def
/cpdobj cpdv i get def
obj cpdobj ne {
/upd true def
exit
} if
} for
} {
/upd true def
} ifelse
} {
v type /dicttype eq {
v {
/dv exch def
/dk exch def
/cpddv cpdv dk get def
dv cpddv ne {
/upd true def
exit
} if
} forall
} {
/upd true def
} ifelse
} ifelse
} if
} ifelse
upd true eq {
d k v put
} if
} if
} if
} forall
d length 0 gt {
d setpagedevice
} if
} bd
/RE { % /NewFontName [NewEncodingArray] /FontName RE -
  findfont dup length dict begin
  {
    1 index /FID ne
    {def} {pop pop} ifelse
  } forall
  /Encoding exch def
  /FontName 1 index def
  currentdict definefont pop
  end
} bind def
%%EndResource
%%BeginResource: procset (Apache XML Graphics EPS ProcSet) 1.0 0
%%Version: 1.0 0
%%Copyright: (Copyright 2002-2003 The Apache Software Foundation. License terms: http://www.apache.org/licenses/LICENSE-2.0)
/BeginEPSF { %def
/b4_Inc_state save def         % Save state for cleanup
/dict_count countdictstack def % Count objects on dict stack
/op_count count 1 sub def      % Count objects on operand stack
userdict begin                 % Push userdict on dict stack
/showpage { } def              % Redefine showpage, { } = null proc
0 setgray 0 setlinecap         % Prepare graphics state
1 setlinewidth 0 setlinejoin
10 setmiterlimit [ ] 0 setdash newpath
/languagelevel where           % If level not equal to 1 then
{pop languagelevel             % set strokeadjust and
1 ne                           % overprint to their defaults.
{false setstrokeadjust false setoverprint
} if
} if
} bd
/EndEPSF { %def
count op_count sub {pop} repeat            % Clean up stacks
countdictstack dict_count sub {end} repeat
b4_Inc_state restore
} bd
%%EndResource
%FOPBeginFontDict
%%IncludeResource: font Courier-Oblique
%%IncludeResource: font Courier-BoldOblique
%%IncludeResource: font Courier-Bold
%%IncludeResource: font ZapfDingbats
%%IncludeResource: font Symbol
%%IncludeResource: font Helvetica
%%IncludeResource: font Helvetica-Oblique
%%IncludeResource: font Helvetica-Bold
%%IncludeResource: font Helvetica-BoldOblique
%%IncludeResource: font Times-Roman
%%IncludeResource: font Times-Italic
%%IncludeResource: font Times-Bold
%%IncludeResource: font Times-BoldItalic
%%IncludeResource: font Courier
%FOPEndFontDict
%%BeginResource: encoding WinAnsiEncoding
/WinAnsiEncoding [
/.notdef /.notdef /.notdef /.notdef /.notdef
/.notdef /.notdef /.notdef /.notdef /.notdef
/.notdef /.notdef /.notdef /.notdef /.notdef
/.notdef /.notdef /.notdef /.notdef /.notdef
/.notdef /.notdef /.notdef /.notdef /.notdef
/.notdef /.notdef /.notdef /.notdef /.notdef
/.notdef /.notdef /space /exclam /quotedbl
/numbersign /dollar /percent /ampersand /quotesingle
/parenleft /parenright /asterisk /plus /comma
/hyphen /period /slash /zero /one
/two /three /four /five /six
/seven /eight /nine /colon /semicolon
/less /equal /greater /question /at
/A /B /C /D /E
/F /G /H /I /J
/K /L /M /N /O
/P /Q /R /S /T
/U /V /W /X /Y
/Z /bracketleft /backslash /bracketright /asciicircum
/underscore /quoteleft /a /b /c
/d /e /f /g /h
/i /j /k /l /m
/n /o /p /q /r
/s /t /u /v /w
/x /y /z /braceleft /bar
/braceright /asciitilde /bullet /Euro /bullet
/quotesinglbase /florin /quotedblbase /ellipsis /dagger
/daggerdbl /circumflex /perthousand /Scaron /guilsinglleft
/OE /bullet /Zcaron /bullet /bullet
/quoteleft /quoteright /quotedblleft /quotedblright /bullet
/endash /emdash /asciitilde /trademark /scaron
/guilsinglright /oe /bullet /zcaron /Ydieresis
/space /exclamdown /cent /sterling /currency
/yen /brokenbar /section /dieresis /copyright
/ordfeminine /guillemotleft /logicalnot /sfthyphen /registered
/macron /degree /plusminus /twosuperior /threesuperior
/acute /mu /paragraph /middot /cedilla
/onesuperior /ordmasculine /guillemotright /onequarter /onehalf
/threequarters /questiondown /Agrave /Aacute /Acircumflex
/Atilde /Adieresis /Aring /AE /Ccedilla
/Egrave /Eacute /Ecircumflex /Edieresis /Igrave
/Iacute /Icircumflex /Idieresis /Eth /Ntilde
/Ograve /Oacute /Ocircumflex /Otilde /Odieresis
/multiply /Oslash /Ugrave /Uacute /Ucircumflex
/Udieresis /Yacute /Thorn /germandbls /agrave
/aacute /acircumflex /atilde /adieresis /aring
/ae /ccedilla /egrave /eacute /ecircumflex
/edieresis /igrave /iacute /icircumflex /idieresis
/eth /ntilde /ograve /oacute /ocircumflex
/otilde /odieresis /divide /oslash /ugrave
/uacute /ucircumflex /udieresis /yacute /thorn
/ydieresis
] def
%%EndResource
%FOPBeginFontReencode
/Courier-Oblique findfont
dup length dict begin
  {1 index /FID ne {def} {pop pop} ifelse} forall
  /Encoding WinAnsiEncoding def
  currentdict
end
/Courier-Oblique exch definefont pop
/Courier-BoldOblique findfont
dup length dict begin
  {1 index /FID ne {def} {pop pop} ifelse} forall
  /Encoding WinAnsiEncoding def
  currentdict
end
/Courier-BoldOblique exch definefont pop
/Courier-Bold findfont
dup length dict begin
  {1 index /FID ne {def} {pop pop} ifelse} forall
  /Encoding WinAnsiEncoding def
  currentdict
end
/Courier-Bold exch definefont pop
/Helvetica findfont
dup length dict begin
  {1 index /FID ne {def} {pop pop} ifelse} forall
  /Encoding WinAnsiEncoding def
  currentdict
end
/Helvetica exch definefont pop
/Helvetica-Oblique findfont
dup length dict begin
  {1 index /FID ne {def} {pop pop} ifelse} forall
  /Encoding WinAnsiEncoding def
  currentdict
end
/Helvetica-Oblique exch definefont pop
/Helvetica-Bold findfont
dup length dict begin
  {1 index /FID ne {def} {pop pop} ifelse} forall
  /Encoding WinAnsiEncoding def
  currentdict
end
/Helvetica-Bold exch definefont pop
/Helvetica-BoldOblique findfont
dup length dict begin
  {1 index /FID ne {def} {pop pop} ifelse} forall
  /Encoding WinAnsiEncoding def
  currentdict
end
/Helvetica-BoldOblique exch definefont pop
/Times-Roman findfont
dup length dict begin
  {1 index /FID ne {def} {pop pop} ifelse} forall
  /Encoding WinAnsiEncoding def
  currentdict
end
/Times-Roman exch definefont pop
/Times-Italic findfont
dup length dict begin
  {1 index /FID ne {def} {pop pop} ifelse} forall
  /Encoding WinAnsiEncoding def
  currentdict
end
/Times-Italic exch definefont pop
/Times-Bold findfont
dup length dict begin
  {1 index /FID ne {def} {pop pop} ifelse} forall
  /Encoding WinAnsiEncoding def
  currentdict
end
/Times-Bold exch definefont pop
/Times-BoldItalic findfont
dup length dict begin
  {1 index /FID ne {def} {pop pop} ifelse} forall
  /Encoding WinAnsiEncoding def
  currentdict
end
/Times-BoldItalic exch definefont pop
/Courier findfont
dup length dict begin
  {1 index /FID ne {def} {pop pop} ifelse} forall
  /Encoding WinAnsiEncoding def
  currentdict
end
/Courier exch definefont pop
%FOPEndFontReencode
%%EndProlog
%%Page: 1 1
%%PageBoundingBox: 0 0 547 375
%%BeginPageSetup
[1 0 0 -1 0 375] CT
%%EndPageSetup
GS
[0.75 0 0 0.75 0 0] CT
1 GC
N
0 0 729 500 re
f
GR
GS
[0.75 0 0 0.75 0 0] CT
1 GC
N
0 0 729 500 re
f
GR
GS
[0.75 0 0 0.75 0 0] CT
1 GC
N
95 209 M
660 209 L
660 37 L
95 37 L
cp
f
GR
GS
[0.75 0 0 0.75 0 0] CT
0.873 GC
1 LJ
0.667 LW
N
95 209 M
95 37 L
S
GR
GS
[0.75 0 0 0.75 0 0] CT
0.873 GC
1 LJ
0.667 LW
N
189.167 209 M
189.167 37 L
S
GR
GS
[0.75 0 0 0.75 0 0] CT
0.873 GC
1 LJ
0.667 LW
N
283.333 209 M
283.333 37 L
S
GR
GS
[0.75 0 0 0.75 0 0] CT
0.873 GC
1 LJ
0.667 LW
N
377.5 209 M
377.5 37 L
S
GR
GS
[0.75 0 0 0.75 0 0] CT
0.873 GC
1 LJ
0.667 LW
N
471.667 209 M
471.667 37 L
S
GR
GS
[0.75 0 0 0.75 0 0] CT
0.873 GC
1 LJ
0.667 LW
N
565.833 209 M
565.833 37 L
S
GR
GS
[0.75 0 0 0.75 0 0] CT
0.873 GC
1 LJ
0.667 LW
N
660 209 M
660 37 L
S
GR
GS
[0.75 0 0 0.75 0 0] CT
0.873 GC
1 LJ
0.667 LW
N
660 209 M
95 209 L
S
GR
GS
[0.75 0 0 0.75 0 0] CT
0.873 GC
1 LJ
0.667 LW
N
660 166 M
95 166 L
S
GR
GS
[0.75 0 0 0.75 0 0] CT
0.873 GC
1 LJ
0.667 LW
N
660 123 M
95 123 L
S
GR
GS
[0.75 0 0 0.75 0 0] CT
0.873 GC
1 LJ
0.667 LW
N
660 80 M
95 80 L
S
GR
GS
[0.75 0 0 0.75 0 0] CT
0.873 GC
1 LJ
0.667 LW
N
660 37 M
95 37 L
S
GR
GS
[0.75 0 0 0.75 0 0] CT
0.149 GC
2 setlinecap
1 LJ
0.667 LW
N
95 209 M
660 209 L
S
GR
GS
[0.75 0 0 0.75 0 0] CT
0.149 GC
2 setlinecap
1 LJ
0.667 LW
N
95 37 M
660 37 L
S
GR
GS
[0.75 0 0 0.75 0 0] CT
0.149 GC
2 setlinecap
1 LJ
0.667 LW
N
95 209 M
95 203.35 L
S
GR
GS
[0.75 0 0 0.75 0 0] CT
0.149 GC
2 setlinecap
1 LJ
0.667 LW
N
189.167 209 M
189.167 203.35 L
S
GR
GS
[0.75 0 0 0.75 0 0] CT
0.149 GC
2 setlinecap
1 LJ
0.667 LW
N
283.333 209 M
283.333 203.35 L
S
GR
GS
[0.75 0 0 0.75 0 0] CT
0.149 GC
2 setlinecap
1 LJ
0.667 LW
N
377.5 209 M
377.5 203.35 L
S
GR
GS
[0.75 0 0 0.75 0 0] CT
0.149 GC
2 setlinecap
1 LJ
0.667 LW
N
471.667 209 M
471.667 203.35 L
S
GR
GS
[0.75 0 0 0.75 0 0] CT
0.149 GC
2 setlinecap
1 LJ
0.667 LW
N
565.833 209 M
565.833 203.35 L
S
GR
GS
[0.75 0 0 0.75 0 0] CT
0.149 GC
2 setlinecap
1 LJ
0.667 LW
N
660 209 M
660 203.35 L
S
GR
GS
[0.75 0 0 0.75 0 0] CT
0.149 GC
2 setlinecap
1 LJ
0.667 LW
N
95 37 M
95 42.65 L
S
GR
GS
[0.75 0 0 0.75 0 0] CT
0.149 GC
2 setlinecap
1 LJ
0.667 LW
N
189.167 37 M
189.167 42.65 L
S
GR
GS
[0.75 0 0 0.75 0 0] CT
0.149 GC
2 setlinecap
1 LJ
0.667 LW
N
283.333 37 M
283.333 42.65 L
S
GR
GS
[0.75 0 0 0.75 0 0] CT
0.149 GC
2 setlinecap
1 LJ
0.667 LW
N
377.5 37 M
377.5 42.65 L
S
GR
GS
[0.75 0 0 0.75 0 0] CT
0.149 GC
2 setlinecap
1 LJ
0.667 LW
N
471.667 37 M
471.667 42.65 L
S
GR
GS
[0.75 0 0 0.75 0 0] CT
0.149 GC
2 setlinecap
1 LJ
0.667 LW
N
565.833 37 M
565.833 42.65 L
S
GR
GS
[0.75 0 0 0.75 0 0] CT
0.149 GC
2 setlinecap
1 LJ
0.667 LW
N
660 37 M
660 42.65 L
S
GR
GS
[0.75 0 0 0.75 71.25 161.55001] CT
0.149 GC
/Helvetica 18.667 F
GS
[1 0 0 1 0 0] CT
-13.5 19 moveto 
1 -1 scale
(-45) t 
GR
GR
GS
[0.75 0 0 0.75 141.875 161.55001] CT
0.149 GC
/Helvetica 18.667 F
GS
[1 0 0 1 0 0] CT
-13.5 19 moveto 
1 -1 scale
(-40) t 
GR
GR
GS
[0.75 0 0 0.75 212.50001 161.55001] CT
0.149 GC
/Helvetica 18.667 F
GS
[1 0 0 1 0 0] CT
-13.5 19 moveto 
1 -1 scale
(-35) t 
GR
GR
GS
[0.75 0 0 0.75 283.125 161.55001] CT
0.149 GC
/Helvetica 18.667 F
GS
[1 0 0 1 0 0] CT
-13.5 19 moveto 
1 -1 scale
(-30) t 
GR
GR
GS
[0.75 0 0 0.75 353.74999 161.55001] CT
0.149 GC
/Helvetica 18.667 F
GS
[1 0 0 1 0 0] CT
-13.5 19 moveto 
1 -1 scale
(-25) t 
GR
GR
GS
[0.75 0 0 0.75 424.37498 161.55001] CT
0.149 GC
/Helvetica 18.667 F
GS
[1 0 0 1 0 0] CT
-13.5 19 moveto 
1 -1 scale
(-20) t 
GR
GR
GS
[0.75 0 0 0.75 495 161.55001] CT
0.149 GC
/Helvetica 18.667 F
GS
[1 0 0 1 0 0] CT
-13.5 19 moveto 
1 -1 scale
(-15) t 
GR
GR
GS
[0.75 0 0 0.75 283.12518 180.55] CT
0.149 GC
/Helvetica 20.533 F
GS
[1 0 0 1 0 0] CT
-68 21 moveto 
1 -1 scale
(LNA IP3 [dBm]) t 
GR
GR
GS
[0.75 0 0 0.75 0 0] CT
0.149 GC
2 setlinecap
1 LJ
0.667 LW
N
95 209 M
95 37 L
S
GR
GS
[0.75 0 0 0.75 0 0] CT
0.149 GC
2 setlinecap
1 LJ
0.667 LW
N
660 209 M
660 37 L
S
GR
GS
[0.75 0 0 0.75 0 0] CT
0.149 GC
2 setlinecap
1 LJ
0.667 LW
N
95 209 M
100.65 209 L
S
GR
GS
[0.75 0 0 0.75 0 0] CT
0.149 GC
2 setlinecap
1 LJ
0.667 LW
N
95 166 M
100.65 166 L
S
GR
GS
[0.75 0 0 0.75 0 0] CT
0.149 GC
2 setlinecap
1 LJ
0.667 LW
N
95 123 M
100.65 123 L
S
GR
GS
[0.75 0 0 0.75 0 0] CT
0.149 GC
2 setlinecap
1 LJ
0.667 LW
N
95 80 M
100.65 80 L
S
GR
GS
[0.75 0 0 0.75 0 0] CT
0.149 GC
2 setlinecap
1 LJ
0.667 LW
N
95 37 M
100.65 37 L
S
GR
GS
[0.75 0 0 0.75 0 0] CT
0.149 GC
2 setlinecap
1 LJ
0.667 LW
N
660 209 M
654.35 209 L
S
GR
GS
[0.75 0 0 0.75 0 0] CT
0.149 GC
2 setlinecap
1 LJ
0.667 LW
N
660 166 M
654.35 166 L
S
GR
GS
[0.75 0 0 0.75 0 0] CT
0.149 GC
2 setlinecap
1 LJ
0.667 LW
N
660 123 M
654.35 123 L
S
GR
GS
[0.75 0 0 0.75 0 0] CT
0.149 GC
2 setlinecap
1 LJ
0.667 LW
N
660 80 M
654.35 80 L
S
GR
GS
[0.75 0 0 0.75 0 0] CT
0.149 GC
2 setlinecap
1 LJ
0.667 LW
N
660 37 M
654.35 37 L
S
GR
GS
[0.75 0 0 0.75 66.44998 156.75] CT
0.149 GC
/Helvetica 18.667 F
GS
[1 0 0 1 0 0] CT
-27 7 moveto 
1 -1 scale
(-30) t 
GR
GR
GS
[0.75 0 0 0.75 66.44998 124.5] CT
0.149 GC
/Helvetica 18.667 F
GS
[1 0 0 1 0 0] CT
-27 7 moveto 
1 -1 scale
(-20) t 
GR
GR
GS
[0.75 0 0 0.75 66.44998 92.25] CT
0.149 GC
/Helvetica 18.667 F
GS
[1 0 0 1 0 0] CT
-27 7 moveto 
1 -1 scale
(-10) t 
GR
GR
GS
[0.75 0 0 0.75 66.44998 60] CT
0.149 GC
/Helvetica 18.667 F
GS
[1 0 0 1 0 0] CT
-11 7 moveto 
1 -1 scale
(0) t 
GR
GR
GS
[0.75 0 0 0.75 66.44998 27.75] CT
0.149 GC
/Helvetica 18.667 F
GS
[1 0 0 1 0 0] CT
-21 7 moveto 
1 -1 scale
(10) t 
GR
GR
GS
[0 -0.75 0.75 0 43.20001 92.24994] CT
0.149 GC
/Helvetica 20.533 F
GS
[1 0 0 1 0 0] CT
-95.5 -5 moveto 
1 -1 scale
(Norm. Distortion [dB]) t 
GR
GR
GS
[0.75 0 0 0.75 431.50026 52.78874] CT
/Helvetica-Bold 20.533 F
GS
[1 0 0 1 0 0] CT
-67 -5 moveto 
1 -1 scale
(Clipping Only) t 
GR
GR
GS
[0.75 0 0 0.75 0 0] CT
0 0.447 0.741 RC
[8 8] 0 setdash
2 LJ
2.667 LW
N
95 148.11 M
151.5 154.005 L
208 160.777 L
264.5 171.573 L
321 174.427 L
377.5 169.118 L
434 164.774 L
490.5 164.516 L
547 164.101 L
603.5 165.154 L
660 164.174 L
S
GR
GS
[0.75 0 0 0.75 71.25 111.08245] CT
0 0.447 0.741 RC
10.0 ML
2.667 LW
N
5.333 0 M
5.333 -2.946 2.946 -5.333 0 -5.333 C
-2.946 -5.333 -5.333 -2.946 -5.333 0 C
-5.333 2.946 -2.946 5.333 0 5.333 C
2.946 5.333 5.333 2.946 5.333 0 C
cp
S
GR
GS
[0.75 0 0 0.75 113.625 115.50399] CT
0 0.447 0.741 RC
10.0 ML
2.667 LW
N
5.333 0 M
5.333 -2.946 2.946 -5.333 0 -5.333 C
-2.946 -5.333 -5.333 -2.946 -5.333 0 C
-5.333 2.946 -2.946 5.333 0 5.333 C
2.946 5.333 5.333 2.946 5.333 0 C
cp
S
GR
GS
[0.75 0 0 0.75 156 120.58287] CT
0 0.447 0.741 RC
10.0 ML
2.667 LW
N
5.333 0 M
5.333 -2.946 2.946 -5.333 0 -5.333 C
-2.946 -5.333 -5.333 -2.946 -5.333 0 C
-5.333 2.946 -2.946 5.333 0 5.333 C
2.946 5.333 5.333 2.946 5.333 0 C
cp
S
GR
GS
[0.75 0 0 0.75 198.375 128.67947] CT
0 0.447 0.741 RC
10.0 ML
2.667 LW
N
5.333 0 M
5.333 -2.946 2.946 -5.333 0 -5.333 C
-2.946 -5.333 -5.333 -2.946 -5.333 0 C
-5.333 2.946 -2.946 5.333 0 5.333 C
2.946 5.333 5.333 2.946 5.333 0 C
cp
S
GR
GS
[0.75 0 0 0.75 240.75 130.82047] CT
0 0.447 0.741 RC
10.0 ML
2.667 LW
N
5.333 0 M
5.333 -2.946 2.946 -5.333 0 -5.333 C
-2.946 -5.333 -5.333 -2.946 -5.333 0 C
-5.333 2.946 -2.946 5.333 0 5.333 C
2.946 5.333 5.333 2.946 5.333 0 C
cp
S
GR
GS
[0.75 0 0 0.75 283.125 126.83861] CT
0 0.447 0.741 RC
10.0 ML
2.667 LW
N
5.333 0 M
5.333 -2.946 2.946 -5.333 0 -5.333 C
-2.946 -5.333 -5.333 -2.946 -5.333 0 C
-5.333 2.946 -2.946 5.333 0 5.333 C
2.946 5.333 5.333 2.946 5.333 0 C
cp
S
GR
GS
[0.75 0 0 0.75 325.5 123.58075] CT
0 0.447 0.741 RC
10.0 ML
2.667 LW
N
5.333 0 M
5.333 -2.946 2.946 -5.333 0 -5.333 C
-2.946 -5.333 -5.333 -2.946 -5.333 0 C
-5.333 2.946 -2.946 5.333 0 5.333 C
2.946 5.333 5.333 2.946 5.333 0 C
cp
S
GR
GS
[0.75 0 0 0.75 367.875 123.38692] CT
0 0.447 0.741 RC
10.0 ML
2.667 LW
N
5.333 0 M
5.333 -2.946 2.946 -5.333 0 -5.333 C
-2.946 -5.333 -5.333 -2.946 -5.333 0 C
-5.333 2.946 -2.946 5.333 0 5.333 C
2.946 5.333 5.333 2.946 5.333 0 C
cp
S
GR
GS
[0.75 0 0 0.75 410.25 123.07547] CT
0 0.447 0.741 RC
10.0 ML
2.667 LW
N
5.333 0 M
5.333 -2.946 2.946 -5.333 0 -5.333 C
-2.946 -5.333 -5.333 -2.946 -5.333 0 C
-5.333 2.946 -2.946 5.333 0 5.333 C
2.946 5.333 5.333 2.946 5.333 0 C
cp
S
GR
GS
[0.75 0 0 0.75 452.625 123.86561] CT
0 0.447 0.741 RC
10.0 ML
2.667 LW
N
5.333 0 M
5.333 -2.946 2.946 -5.333 0 -5.333 C
-2.946 -5.333 -5.333 -2.946 -5.333 0 C
-5.333 2.946 -2.946 5.333 0 5.333 C
2.946 5.333 5.333 2.946 5.333 0 C
cp
S
GR
GS
[0.75 0 0 0.75 495 123.13077] CT
0 0.447 0.741 RC
10.0 ML
2.667 LW
N
5.333 0 M
5.333 -2.946 2.946 -5.333 0 -5.333 C
-2.946 -5.333 -5.333 -2.946 -5.333 0 C
-5.333 2.946 -2.946 5.333 0 5.333 C
2.946 5.333 5.333 2.946 5.333 0 C
cp
S
GR
GS
[0.75 0 0 0.75 0 0] CT
0.851 0.325 0.098 RC
[8 2 4 2] 0 setdash
2 LJ
2.667 LW
N
95 50.626 M
151.5 51.131 L
208 58.073 L
264.5 74.065 L
321 99.486 L
377.5 153.422 L
434 166.703 L
490.5 166.713 L
547 165.948 L
603.5 166.747 L
660 166.03 L
S
GR
GS
[0.75 0 0 0.75 71.25 37.96973] CT
0.851 0.325 0.098 RC
10.0 ML
2.667 LW
N
-4 -4 M
-4 4 L
4 4 L
4 -4 L
cp
S
GR
GS
[0.75 0 0 0.75 113.625 38.34861] CT
0.851 0.325 0.098 RC
10.0 ML
2.667 LW
N
-4 -4 M
-4 4 L
4 4 L
4 -4 L
cp
S
GR
GS
[0.75 0 0 0.75 156 43.55448] CT
0.851 0.325 0.098 RC
10.0 ML
2.667 LW
N
-4 -4 M
-4 4 L
4 4 L
4 -4 L
cp
S
GR
GS
[0.75 0 0 0.75 198.375 55.54897] CT
0.851 0.325 0.098 RC
10.0 ML
2.667 LW
N
-4 -4 M
-4 4 L
4 4 L
4 -4 L
cp
S
GR
GS
[0.75 0 0 0.75 240.75 74.61475] CT
0.851 0.325 0.098 RC
10.0 ML
2.667 LW
N
-4 -4 M
-4 4 L
4 4 L
4 -4 L
cp
S
GR
GS
[0.75 0 0 0.75 283.125 115.06637] CT
0.851 0.325 0.098 RC
10.0 ML
2.667 LW
N
-4 -4 M
-4 4 L
4 4 L
4 -4 L
cp
S
GR
GS
[0.75 0 0 0.75 325.5 125.0275] CT
0.851 0.325 0.098 RC
10.0 ML
2.667 LW
N
-4 -4 M
-4 4 L
4 4 L
4 -4 L
cp
S
GR
GS
[0.75 0 0 0.75 367.875 125.03455] CT
0.851 0.325 0.098 RC
10.0 ML
2.667 LW
N
-4 -4 M
-4 4 L
4 4 L
4 -4 L
cp
S
GR
GS
[0.75 0 0 0.75 410.25 124.46107] CT
0.851 0.325 0.098 RC
10.0 ML
2.667 LW
N
-4 -4 M
-4 4 L
4 4 L
4 -4 L
cp
S
GR
GS
[0.75 0 0 0.75 452.625 125.06029] CT
0.851 0.325 0.098 RC
10.0 ML
2.667 LW
N
-4 -4 M
-4 4 L
4 4 L
4 -4 L
cp
S
GR
GS
[0.75 0 0 0.75 495 124.52238] CT
0.851 0.325 0.098 RC
10.0 ML
2.667 LW
N
-4 -4 M
-4 4 L
4 4 L
4 -4 L
cp
S
GR
GS
[0.75 0 0 0.75 0 0] CT
1 GC
N
283 132 M
283 85 L
107 85 L
107 132 L
cp
f
GR
GS
[0.75 0 0 0.75 115.5 73.22581] CT
/Helvetica 16.8 F
GS
[1 0 0 1 0 0] CT
0 6.5 moveto 
1 -1 scale
(NL, Prop. Comp.) t 
GR
GR
GS
[0.75 0 0 0.75 0 0] CT
0 0.447 0.741 RC
[8 8] 0 setdash
2 LJ
2.667 LW
N
111 97.634 M
151 97.634 L
S
GR
GS
[0.75 0 0 0.75 98.25 73.22581] CT
0 0.447 0.741 RC
10.0 ML
2.667 LW
N
5.333 0 M
5.333 -2.946 2.946 -5.333 0 -5.333 C
-2.946 -5.333 -5.333 -2.946 -5.333 0 C
-5.333 2.946 -2.946 5.333 0 5.333 C
2.946 5.333 5.333 2.946 5.333 0 C
cp
S
GR
GS
[0.75 0 0 0.75 115.5 89.52419] CT
/Helvetica 16.8 F
GS
[1 0 0 1 0 0] CT
0 6.5 moveto 
1 -1 scale
(NL, No Comp.) t 
GR
GR
GS
[0.75 0 0 0.75 0 0] CT
0.851 0.325 0.098 RC
[8 2 4 2] 0 setdash
2 LJ
2.667 LW
N
111 119.366 M
151 119.366 L
S
GR
GS
[0.75 0 0 0.75 98.25 89.52419] CT
0.851 0.325 0.098 RC
10.0 ML
2.667 LW
N
-4 -4 M
-4 4 L
4 4 L
4 -4 L
cp
S
GR
GS
[0.75 0 0 0.75 0 0] CT
0.149 GC
10.0 ML
0.667 LW
N
107 132 M
107 85 L
283 85 L
283 132 L
cp
S
GR
GS
[0.75 0 0 0.75 0 0] CT
1 GC
N
95 442 M
660 442 L
660 289 L
95 289 L
cp
f
GR
GS
[0.75 0 0 0.75 0 0] CT
0.873 GC
1 LJ
0.667 LW
N
95 442 M
95 289 L
S
GR
GS
[0.75 0 0 0.75 0 0] CT
0.873 GC
1 LJ
0.667 LW
N
189.167 442 M
189.167 289 L
S
GR
GS
[0.75 0 0 0.75 0 0] CT
0.873 GC
1 LJ
0.667 LW
N
283.333 442 M
283.333 289 L
S
GR
GS
[0.75 0 0 0.75 0 0] CT
0.873 GC
1 LJ
0.667 LW
N
377.5 442 M
377.5 289 L
S
GR
GS
[0.75 0 0 0.75 0 0] CT
0.873 GC
1 LJ
0.667 LW
N
471.667 442 M
471.667 289 L
S
GR
GS
[0.75 0 0 0.75 0 0] CT
0.873 GC
1 LJ
0.667 LW
N
565.833 442 M
565.833 289 L
S
GR
GS
[0.75 0 0 0.75 0 0] CT
0.873 GC
1 LJ
0.667 LW
N
660 442 M
660 289 L
S
GR
GS
[0.75 0 0 0.75 0 0] CT
0.873 GC
1 LJ
0.667 LW
N
660 442 M
95 442 L
S
GR
GS
[0.75 0 0 0.75 0 0] CT
0.873 GC
1 LJ
0.667 LW
N
660 403.75 M
95 403.75 L
S
GR
GS
[0.75 0 0 0.75 0 0] CT
0.873 GC
1 LJ
0.667 LW
N
660 365.5 M
95 365.5 L
S
GR
GS
[0.75 0 0 0.75 0 0] CT
0.873 GC
1 LJ
0.667 LW
N
660 327.25 M
95 327.25 L
S
GR
GS
[0.75 0 0 0.75 0 0] CT
0.873 GC
1 LJ
0.667 LW
N
660 289 M
95 289 L
S
GR
GS
[0.75 0 0 0.75 0 0] CT
0.149 GC
2 setlinecap
1 LJ
0.667 LW
N
95 442 M
660 442 L
S
GR
GS
[0.75 0 0 0.75 0 0] CT
0.149 GC
2 setlinecap
1 LJ
0.667 LW
N
95 289 M
660 289 L
S
GR
GS
[0.75 0 0 0.75 0 0] CT
0.149 GC
2 setlinecap
1 LJ
0.667 LW
N
95 442 M
95 436.35 L
S
GR
GS
[0.75 0 0 0.75 0 0] CT
0.149 GC
2 setlinecap
1 LJ
0.667 LW
N
189.167 442 M
189.167 436.35 L
S
GR
GS
[0.75 0 0 0.75 0 0] CT
0.149 GC
2 setlinecap
1 LJ
0.667 LW
N
283.333 442 M
283.333 436.35 L
S
GR
GS
[0.75 0 0 0.75 0 0] CT
0.149 GC
2 setlinecap
1 LJ
0.667 LW
N
377.5 442 M
377.5 436.35 L
S
GR
GS
[0.75 0 0 0.75 0 0] CT
0.149 GC
2 setlinecap
1 LJ
0.667 LW
N
471.667 442 M
471.667 436.35 L
S
GR
GS
[0.75 0 0 0.75 0 0] CT
0.149 GC
2 setlinecap
1 LJ
0.667 LW
N
565.833 442 M
565.833 436.35 L
S
GR
GS
[0.75 0 0 0.75 0 0] CT
0.149 GC
2 setlinecap
1 LJ
0.667 LW
N
660 442 M
660 436.35 L
S
GR
GS
[0.75 0 0 0.75 0 0] CT
0.149 GC
2 setlinecap
1 LJ
0.667 LW
N
95 289 M
95 294.65 L
S
GR
GS
[0.75 0 0 0.75 0 0] CT
0.149 GC
2 setlinecap
1 LJ
0.667 LW
N
189.167 289 M
189.167 294.65 L
S
GR
GS
[0.75 0 0 0.75 0 0] CT
0.149 GC
2 setlinecap
1 LJ
0.667 LW
N
283.333 289 M
283.333 294.65 L
S
GR
GS
[0.75 0 0 0.75 0 0] CT
0.149 GC
2 setlinecap
1 LJ
0.667 LW
N
377.5 289 M
377.5 294.65 L
S
GR
GS
[0.75 0 0 0.75 0 0] CT
0.149 GC
2 setlinecap
1 LJ
0.667 LW
N
471.667 289 M
471.667 294.65 L
S
GR
GS
[0.75 0 0 0.75 0 0] CT
0.149 GC
2 setlinecap
1 LJ
0.667 LW
N
565.833 289 M
565.833 294.65 L
S
GR
GS
[0.75 0 0 0.75 0 0] CT
0.149 GC
2 setlinecap
1 LJ
0.667 LW
N
660 289 M
660 294.65 L
S
GR
GS
[0.75 0 0 0.75 71.25 336.3] CT
0.149 GC
/Helvetica 18.667 F
GS
[1 0 0 1 0 0] CT
-13.5 19 moveto 
1 -1 scale
(-45) t 
GR
GR
GS
[0.75 0 0 0.75 141.875 336.3] CT
0.149 GC
/Helvetica 18.667 F
GS
[1 0 0 1 0 0] CT
-13.5 19 moveto 
1 -1 scale
(-40) t 
GR
GR
GS
[0.75 0 0 0.75 212.50001 336.3] CT
0.149 GC
/Helvetica 18.667 F
GS
[1 0 0 1 0 0] CT
-13.5 19 moveto 
1 -1 scale
(-35) t 
GR
GR
GS
[0.75 0 0 0.75 283.125 336.3] CT
0.149 GC
/Helvetica 18.667 F
GS
[1 0 0 1 0 0] CT
-13.5 19 moveto 
1 -1 scale
(-30) t 
GR
GR
GS
[0.75 0 0 0.75 353.74999 336.3] CT
0.149 GC
/Helvetica 18.667 F
GS
[1 0 0 1 0 0] CT
-13.5 19 moveto 
1 -1 scale
(-25) t 
GR
GR
GS
[0.75 0 0 0.75 424.37498 336.3] CT
0.149 GC
/Helvetica 18.667 F
GS
[1 0 0 1 0 0] CT
-13.5 19 moveto 
1 -1 scale
(-20) t 
GR
GR
GS
[0.75 0 0 0.75 495 336.3] CT
0.149 GC
/Helvetica 18.667 F
GS
[1 0 0 1 0 0] CT
-13.5 19 moveto 
1 -1 scale
(-15) t 
GR
GR
GS
[0.75 0 0 0.75 283.12518 355.3] CT
0.149 GC
/Helvetica 20.533 F
GS
[1 0 0 1 0 0] CT
-68 21 moveto 
1 -1 scale
(LNA IP3 [dBm]) t 
GR
GR
GS
[0.75 0 0 0.75 0 0] CT
0.149 GC
2 setlinecap
1 LJ
0.667 LW
N
95 442 M
95 289 L
S
GR
GS
[0.75 0 0 0.75 0 0] CT
0.149 GC
2 setlinecap
1 LJ
0.667 LW
N
660 442 M
660 289 L
S
GR
GS
[0.75 0 0 0.75 0 0] CT
0.149 GC
2 setlinecap
1 LJ
0.667 LW
N
95 442 M
100.65 442 L
S
GR
GS
[0.75 0 0 0.75 0 0] CT
0.149 GC
2 setlinecap
1 LJ
0.667 LW
N
95 403.75 M
100.65 403.75 L
S
GR
GS
[0.75 0 0 0.75 0 0] CT
0.149 GC
2 setlinecap
1 LJ
0.667 LW
N
95 365.5 M
100.65 365.5 L
S
GR
GS
[0.75 0 0 0.75 0 0] CT
0.149 GC
2 setlinecap
1 LJ
0.667 LW
N
95 327.25 M
100.65 327.25 L
S
GR
GS
[0.75 0 0 0.75 0 0] CT
0.149 GC
2 setlinecap
1 LJ
0.667 LW
N
95 289 M
100.65 289 L
S
GR
GS
[0.75 0 0 0.75 0 0] CT
0.149 GC
2 setlinecap
1 LJ
0.667 LW
N
660 442 M
654.35 442 L
S
GR
GS
[0.75 0 0 0.75 0 0] CT
0.149 GC
2 setlinecap
1 LJ
0.667 LW
N
660 403.75 M
654.35 403.75 L
S
GR
GS
[0.75 0 0 0.75 0 0] CT
0.149 GC
2 setlinecap
1 LJ
0.667 LW
N
660 365.5 M
654.35 365.5 L
S
GR
GS
[0.75 0 0 0.75 0 0] CT
0.149 GC
2 setlinecap
1 LJ
0.667 LW
N
660 327.25 M
654.35 327.25 L
S
GR
GS
[0.75 0 0 0.75 0 0] CT
0.149 GC
2 setlinecap
1 LJ
0.667 LW
N
660 289 M
654.35 289 L
S
GR
GS
[0.75 0 0 0.75 66.44998 331.5] CT
0.149 GC
/Helvetica 18.667 F
GS
[1 0 0 1 0 0] CT
-27 7 moveto 
1 -1 scale
(-30) t 
GR
GR
GS
[0.75 0 0 0.75 66.44998 302.8125] CT
0.149 GC
/Helvetica 18.667 F
GS
[1 0 0 1 0 0] CT
-27 7 moveto 
1 -1 scale
(-20) t 
GR
GR
GS
[0.75 0 0 0.75 66.44998 274.125] CT
0.149 GC
/Helvetica 18.667 F
GS
[1 0 0 1 0 0] CT
-27 7 moveto 
1 -1 scale
(-10) t 
GR
GR
GS
[0.75 0 0 0.75 66.44998 245.4375] CT
0.149 GC
/Helvetica 18.667 F
GS
[1 0 0 1 0 0] CT
-11 7 moveto 
1 -1 scale
(0) t 
GR
GR
GS
[0.75 0 0 0.75 66.44998 216.75] CT
0.149 GC
/Helvetica 18.667 F
GS
[1 0 0 1 0 0] CT
-21 7 moveto 
1 -1 scale
(10) t 
GR
GR
GS
[0 -0.75 0.75 0 43.20001 274.12495] CT
0.149 GC
/Helvetica 20.533 F
GS
[1 0 0 1 0 0] CT
-95.5 -5 moveto 
1 -1 scale
(Norm. Distortion [dB]) t 
GR
GR
GS
[0.75 0 0 0.75 387.93764 243.83437] CT
/Helvetica-Bold 20.533 F
GS
[1 0 0 1 0 0] CT
-130.5 -5 moveto 
1 -1 scale
(3rd Order Polynomial Only) t 
GR
GR
GS
[0.75 0 0 0.75 0 0] CT
0 0.447 0.741 RC
[8 8] 0 setdash
2 LJ
2.667 LW
N
288.839 288.982 M
321 311.466 L
377.5 359.78 L
434 424.759 L
490.5 422.336 L
547 419.857 L
603.5 419.475 L
660 419.436 L
S
GR
GS
[0.75 0 0 0.75 240.75 233.59916] CT
0 0.447 0.741 RC
10.0 ML
2.667 LW
N
5.333 0 M
5.333 -2.946 2.946 -5.333 0 -5.333 C
-2.946 -5.333 -5.333 -2.946 -5.333 0 C
-5.333 2.946 -2.946 5.333 0 5.333 C
2.946 5.333 5.333 2.946 5.333 0 C
cp
S
GR
GS
[0.75 0 0 0.75 283.125 269.83516] CT
0 0.447 0.741 RC
10.0 ML
2.667 LW
N
5.333 0 M
5.333 -2.946 2.946 -5.333 0 -5.333 C
-2.946 -5.333 -5.333 -2.946 -5.333 0 C
-5.333 2.946 -2.946 5.333 0 5.333 C
2.946 5.333 5.333 2.946 5.333 0 C
cp
S
GR
GS
[0.75 0 0 0.75 325.5 318.56889] CT
0 0.447 0.741 RC
10.0 ML
2.667 LW
N
5.333 0 M
5.333 -2.946 2.946 -5.333 0 -5.333 C
-2.946 -5.333 -5.333 -2.946 -5.333 0 C
-5.333 2.946 -2.946 5.333 0 5.333 C
2.946 5.333 5.333 2.946 5.333 0 C
cp
S
GR
GS
[0.75 0 0 0.75 367.875 316.75184] CT
0 0.447 0.741 RC
10.0 ML
2.667 LW
N
5.333 0 M
5.333 -2.946 2.946 -5.333 0 -5.333 C
-2.946 -5.333 -5.333 -2.946 -5.333 0 C
-5.333 2.946 -2.946 5.333 0 5.333 C
2.946 5.333 5.333 2.946 5.333 0 C
cp
S
GR
GS
[0.75 0 0 0.75 410.25 314.89265] CT
0 0.447 0.741 RC
10.0 ML
2.667 LW
N
5.333 0 M
5.333 -2.946 2.946 -5.333 0 -5.333 C
-2.946 -5.333 -5.333 -2.946 -5.333 0 C
-5.333 2.946 -2.946 5.333 0 5.333 C
2.946 5.333 5.333 2.946 5.333 0 C
cp
S
GR
GS
[0.75 0 0 0.75 452.625 314.60598] CT
0 0.447 0.741 RC
10.0 ML
2.667 LW
N
5.333 0 M
5.333 -2.946 2.946 -5.333 0 -5.333 C
-2.946 -5.333 -5.333 -2.946 -5.333 0 C
-5.333 2.946 -2.946 5.333 0 5.333 C
2.946 5.333 5.333 2.946 5.333 0 C
cp
S
GR
GS
[0.75 0 0 0.75 495 314.57732] CT
0 0.447 0.741 RC
10.0 ML
2.667 LW
N
5.333 0 M
5.333 -2.946 2.946 -5.333 0 -5.333 C
-2.946 -5.333 -5.333 -2.946 -5.333 0 C
-5.333 2.946 -2.946 5.333 0 5.333 C
2.946 5.333 5.333 2.946 5.333 0 C
cp
S
GR
GS
[0.75 0 0 0.75 0 0] CT
0.851 0.325 0.098 RC
[8 2 4 2] 0 setdash
2 LJ
2.667 LW
N
288.948 288.982 M
321 313.09 L
377.5 342.552 L
434 367.445 L
490.5 390.419 L
547 406.747 L
603.5 415.094 L
660 418.394 L
S
GR
GS
[0.75 0 0 0.75 240.75 234.81773] CT
0.851 0.325 0.098 RC
10.0 ML
2.667 LW
N
-4 -4 M
-4 4 L
4 4 L
4 -4 L
cp
S
GR
GS
[0.75 0 0 0.75 283.125 256.91389] CT
0.851 0.325 0.098 RC
10.0 ML
2.667 LW
N
-4 -4 M
-4 4 L
4 4 L
4 -4 L
cp
S
GR
GS
[0.75 0 0 0.75 325.5 275.58392] CT
0.851 0.325 0.098 RC
10.0 ML
2.667 LW
N
-4 -4 M
-4 4 L
4 4 L
4 -4 L
cp
S
GR
GS
[0.75 0 0 0.75 367.875 292.81435] CT
0.851 0.325 0.098 RC
10.0 ML
2.667 LW
N
-4 -4 M
-4 4 L
4 4 L
4 -4 L
cp
S
GR
GS
[0.75 0 0 0.75 410.25 305.06039] CT
0.851 0.325 0.098 RC
10.0 ML
2.667 LW
N
-4 -4 M
-4 4 L
4 4 L
4 -4 L
cp
S
GR
GS
[0.75 0 0 0.75 452.625 311.32075] CT
0.851 0.325 0.098 RC
10.0 ML
2.667 LW
N
-4 -4 M
-4 4 L
4 4 L
4 -4 L
cp
S
GR
GS
[0.75 0 0 0.75 495 313.79533] CT
0.851 0.325 0.098 RC
10.0 ML
2.667 LW
N
-4 -4 M
-4 4 L
4 4 L
4 -4 L
cp
S
GR
GS
[0.75 0 0 0.75 0 0] CT
1 GC
N
283 423 M
283 377 L
107 377 L
107 423 L
cp
f
GR
GS
[0.75 0 0 0.75 115.5 292.0242] CT
/Helvetica 16.8 F
GS
[1 0 0 1 0 0] CT
0 6.5 moveto 
1 -1 scale
(NL, Prop. Comp.) t 
GR
GR
GS
[0.75 0 0 0.75 0 0] CT
0 0.447 0.741 RC
[8 8] 0 setdash
2 LJ
2.667 LW
N
111 389.366 M
151 389.366 L
S
GR
GS
[0.75 0 0 0.75 98.25 292.0242] CT
0 0.447 0.741 RC
10.0 ML
2.667 LW
N
5.333 0 M
5.333 -2.946 2.946 -5.333 0 -5.333 C
-2.946 -5.333 -5.333 -2.946 -5.333 0 C
-5.333 2.946 -2.946 5.333 0 5.333 C
2.946 5.333 5.333 2.946 5.333 0 C
cp
S
GR
GS
[0.75 0 0 0.75 115.5 307.9758] CT
/Helvetica 16.8 F
GS
[1 0 0 1 0 0] CT
0 6.5 moveto 
1 -1 scale
(NL, No Comp.) t 
GR
GR
GS
[0.75 0 0 0.75 0 0] CT
0.851 0.325 0.098 RC
[8 2 4 2] 0 setdash
2 LJ
2.667 LW
N
111 410.634 M
151 410.634 L
S
GR
GS
[0.75 0 0 0.75 98.25 307.9758] CT
0.851 0.325 0.098 RC
10.0 ML
2.667 LW
N
-4 -4 M
-4 4 L
4 4 L
4 -4 L
cp
S
GR
GS
[0.75 0 0 0.75 0 0] CT
0.149 GC
10.0 ML
0.667 LW
N
107 423 M
107 377 L
283 377 L
283 423 L
cp
S
GR
%%Trailer
%%Pages: 1
%%EOF
